﻿type,id,ec,cofactors,byproducts,min_length,max_length,name,kegg_reaction,compartment,genes
elongation0,FAS0,,malcoa + h,coa + co2,,,,,,
elongation1,FAS1,,nadph + h,nadp,,,,,,
elongation2,FAS2,,,h2o,,,,,,
elongation3,FAS3,,nadph + h,nadp,,,,,,
delta6,D6,,2  focytb5 + o2 + 2 h,2  ficytb5 + 2 h2o,,,,,,
delta5,D5,,2  focytb5 + o2 + 2 h,2  ficytb5 + 2 h2o,,,,,,
delta9,D9,,2  focytb5 + o2 + 2 h,2  ficytb5 + 2 h2o,,,,,,
beta_oxidation,BOX,,,,,,,,,
elongationm0,FAS0,2.3.1.16,malcoa + h,coa + co2,,16,,,m,
elongationm1,FAS1,1.1.1.35 / 1.1.1.211,nadph + h,nadp,,16,,,m,
elongationm2,FAS2,4.2.1.17,,h2o,,16,,,m,
elongationm3,FAS3,1.3.1.38, ,nadph,,16,,,m,
elongationr0,FAS0,2.3.1.199,malcoa + h,coa + co2,16,,,,r,
elongationr1,FAS1,1.1.1.330,nadph + h,nadp,16,,,,r,
elongationr2,FAS2,4.2.1.134,,h2o,16,,,,r,
elongationr3,FAS3,1.3.1.93,nadph + h,nadp,16,,,,r,
