<?xml version="1.0" encoding="utf-8" standalone="no"?>
<!DOCTYPE svg PUBLIC "-//W3C//DTD SVG 1.1//EN"
  "http://www.w3.org/Graphics/SVG/1.1/DTD/svg11.dtd">
<!-- Created with matplotlib (https://matplotlib.org/) -->
<svg height="390.816562pt" version="1.1" viewBox="0 0 517.305 390.816562" width="517.305pt" xmlns="http://www.w3.org/2000/svg" xmlns:xlink="http://www.w3.org/1999/xlink">
 <defs>
  <style type="text/css">
*{stroke-linecap:butt;stroke-linejoin:round;white-space:pre;}
  </style>
 </defs>
 <g id="figure_1">
  <g id="patch_1">
   <path d="M 0 390.816562 
L 517.305 390.816562 
L 517.305 0 
L 0 0 
z
" style="fill:#ffffff;"/>
  </g>
  <g id="axes_1">
   <g id="patch_2">
    <path d="M 63.705 333.36 
L 510.105 333.36 
L 510.105 7.2 
L 63.705 7.2 
z
" style="fill:#ffffff;"/>
   </g>
   <g id="matplotlib.axis_1">
    <g id="xtick_1">
     <g id="line2d_1">
      <path clip-path="url(#p28db8bc064)" d="M 226.389495 333.36 
L 226.389495 7.2 
" style="fill:none;stroke:#cccccc;stroke-dasharray:3.7,1.6;stroke-dashoffset:0;"/>
     </g>
     <g id="line2d_2">
      <defs>
       <path d="M 0 0 
L 0 6 
" id="mfe2422a785" style="stroke:#262626;stroke-width:1.25;"/>
      </defs>
      <g>
       <use style="fill:#262626;stroke:#262626;stroke-width:1.25;" x="226.389495" xlink:href="#mfe2422a785" y="333.36"/>
      </g>
     </g>
     <g id="text_1">
      <!-- $\mathdefault{10^{1}}$ -->
      <defs>
       <path d="M 37.25 0 
L 28.46875 0 
L 28.46875 56 
Q 25.296875 52.984375 20.140625 49.953125 
Q 14.984375 46.921875 10.890625 45.40625 
L 10.890625 53.90625 
Q 18.265625 57.375 23.78125 62.296875 
Q 29.296875 67.234375 31.59375 71.875 
L 37.25 71.875 
z
" id="ArialMT-49"/>
       <path d="M 4.15625 35.296875 
Q 4.15625 48 6.765625 55.734375 
Q 9.375 63.484375 14.515625 67.671875 
Q 19.671875 71.875 27.484375 71.875 
Q 33.25 71.875 37.59375 69.546875 
Q 41.9375 67.234375 44.765625 62.859375 
Q 47.609375 58.5 49.21875 52.21875 
Q 50.828125 45.953125 50.828125 35.296875 
Q 50.828125 22.703125 48.234375 14.96875 
Q 45.65625 7.234375 40.5 3 
Q 35.359375 -1.21875 27.484375 -1.21875 
Q 17.140625 -1.21875 11.234375 6.203125 
Q 4.15625 15.140625 4.15625 35.296875 
z
M 13.1875 35.296875 
Q 13.1875 17.671875 17.3125 11.828125 
Q 21.4375 6 27.484375 6 
Q 33.546875 6 37.671875 11.859375 
Q 41.796875 17.71875 41.796875 35.296875 
Q 41.796875 52.984375 37.671875 58.78125 
Q 33.546875 64.59375 27.390625 64.59375 
Q 21.34375 64.59375 17.71875 59.46875 
Q 13.1875 52.9375 13.1875 35.296875 
z
" id="ArialMT-48"/>
      </defs>
      <g style="fill:#262626;" transform="translate(213.436995 359.875625)scale(0.165 -0.165)">
       <use transform="translate(0 0.99375)" xlink:href="#ArialMT-49"/>
       <use transform="translate(55.615234 0.99375)" xlink:href="#ArialMT-48"/>
       <use transform="translate(112.972813 70.6875)scale(0.7)" xlink:href="#ArialMT-49"/>
      </g>
     </g>
    </g>
    <g id="xtick_2">
     <g id="line2d_3">
      <path clip-path="url(#p28db8bc064)" d="M 429.541862 333.36 
L 429.541862 7.2 
" style="fill:none;stroke:#cccccc;stroke-dasharray:3.7,1.6;stroke-dashoffset:0;"/>
     </g>
     <g id="line2d_4">
      <g>
       <use style="fill:#262626;stroke:#262626;stroke-width:1.25;" x="429.541862" xlink:href="#mfe2422a785" y="333.36"/>
      </g>
     </g>
     <g id="text_2">
      <!-- $\mathdefault{10^{2}}$ -->
      <defs>
       <path d="M 50.34375 8.453125 
L 50.34375 0 
L 3.03125 0 
Q 2.9375 3.171875 4.046875 6.109375 
Q 5.859375 10.9375 9.828125 15.625 
Q 13.8125 20.3125 21.34375 26.46875 
Q 33.015625 36.03125 37.109375 41.625 
Q 41.21875 47.21875 41.21875 52.203125 
Q 41.21875 57.421875 37.46875 61 
Q 33.734375 64.59375 27.734375 64.59375 
Q 21.390625 64.59375 17.578125 60.78125 
Q 13.765625 56.984375 13.71875 50.25 
L 4.6875 51.171875 
Q 5.609375 61.28125 11.65625 66.578125 
Q 17.71875 71.875 27.9375 71.875 
Q 38.234375 71.875 44.234375 66.15625 
Q 50.25 60.453125 50.25 52 
Q 50.25 47.703125 48.484375 43.546875 
Q 46.734375 39.40625 42.65625 34.8125 
Q 38.578125 30.21875 29.109375 22.21875 
Q 21.1875 15.578125 18.9375 13.203125 
Q 16.703125 10.84375 15.234375 8.453125 
z
" id="ArialMT-50"/>
      </defs>
      <g style="fill:#262626;" transform="translate(416.589362 359.875625)scale(0.165 -0.165)">
       <use transform="translate(0 0.99375)" xlink:href="#ArialMT-49"/>
       <use transform="translate(55.615234 0.99375)" xlink:href="#ArialMT-48"/>
       <use transform="translate(112.972813 70.6875)scale(0.7)" xlink:href="#ArialMT-50"/>
      </g>
     </g>
    </g>
    <g id="xtick_3">
     <g id="line2d_5">
      <defs>
       <path d="M 0 0 
L 0 4 
" id="md697990703" style="stroke:#262626;"/>
      </defs>
      <g>
       <use style="fill:#262626;stroke:#262626;" x="84.392084" xlink:href="#md697990703" y="333.36"/>
      </g>
     </g>
    </g>
    <g id="xtick_4">
     <g id="line2d_6">
      <g>
       <use style="fill:#262626;stroke:#262626;" x="120.16544" xlink:href="#md697990703" y="333.36"/>
      </g>
     </g>
    </g>
    <g id="xtick_5">
     <g id="line2d_7">
      <g>
       <use style="fill:#262626;stroke:#262626;" x="145.54704" xlink:href="#md697990703" y="333.36"/>
      </g>
     </g>
    </g>
    <g id="xtick_6">
     <g id="line2d_8">
      <g>
       <use style="fill:#262626;stroke:#262626;" x="165.234539" xlink:href="#md697990703" y="333.36"/>
      </g>
     </g>
    </g>
    <g id="xtick_7">
     <g id="line2d_9">
      <g>
       <use style="fill:#262626;stroke:#262626;" x="181.320396" xlink:href="#md697990703" y="333.36"/>
      </g>
     </g>
    </g>
    <g id="xtick_8">
     <g id="line2d_10">
      <g>
       <use style="fill:#262626;stroke:#262626;" x="194.920795" xlink:href="#md697990703" y="333.36"/>
      </g>
     </g>
    </g>
    <g id="xtick_9">
     <g id="line2d_11">
      <g>
       <use style="fill:#262626;stroke:#262626;" x="206.701996" xlink:href="#md697990703" y="333.36"/>
      </g>
     </g>
    </g>
    <g id="xtick_10">
     <g id="line2d_12">
      <g>
       <use style="fill:#262626;stroke:#262626;" x="217.093752" xlink:href="#md697990703" y="333.36"/>
      </g>
     </g>
    </g>
    <g id="xtick_11">
     <g id="line2d_13">
      <g>
       <use style="fill:#262626;stroke:#262626;" x="287.544451" xlink:href="#md697990703" y="333.36"/>
      </g>
     </g>
    </g>
    <g id="xtick_12">
     <g id="line2d_14">
      <g>
       <use style="fill:#262626;stroke:#262626;" x="323.317807" xlink:href="#md697990703" y="333.36"/>
      </g>
     </g>
    </g>
    <g id="xtick_13">
     <g id="line2d_15">
      <g>
       <use style="fill:#262626;stroke:#262626;" x="348.699408" xlink:href="#md697990703" y="333.36"/>
      </g>
     </g>
    </g>
    <g id="xtick_14">
     <g id="line2d_16">
      <g>
       <use style="fill:#262626;stroke:#262626;" x="368.386906" xlink:href="#md697990703" y="333.36"/>
      </g>
     </g>
    </g>
    <g id="xtick_15">
     <g id="line2d_17">
      <g>
       <use style="fill:#262626;stroke:#262626;" x="384.472764" xlink:href="#md697990703" y="333.36"/>
      </g>
     </g>
    </g>
    <g id="xtick_16">
     <g id="line2d_18">
      <g>
       <use style="fill:#262626;stroke:#262626;" x="398.073163" xlink:href="#md697990703" y="333.36"/>
      </g>
     </g>
    </g>
    <g id="xtick_17">
     <g id="line2d_19">
      <g>
       <use style="fill:#262626;stroke:#262626;" x="409.854364" xlink:href="#md697990703" y="333.36"/>
      </g>
     </g>
    </g>
    <g id="xtick_18">
     <g id="line2d_20">
      <g>
       <use style="fill:#262626;stroke:#262626;" x="420.24612" xlink:href="#md697990703" y="333.36"/>
      </g>
     </g>
    </g>
    <g id="xtick_19">
     <g id="line2d_21">
      <g>
       <use style="fill:#262626;stroke:#262626;" x="490.696819" xlink:href="#md697990703" y="333.36"/>
      </g>
     </g>
    </g>
    <g id="text_3">
     <!-- $k$ -->
     <defs>
      <path d="M 3.421875 0 
L 18.40625 71.578125 
L 27.203125 71.578125 
L 17.921875 27.203125 
L 43.703125 51.859375 
L 55.375 51.859375 
L 33.25 32.515625 
L 46.625 0 
L 36.96875 0 
L 26.609375 26.609375 
L 15.875 17.328125 
L 12.25 0 
z
" id="Arial-ItalicMT-107"/>
     </defs>
     <g style="fill:#262626;" transform="translate(282.405 380.039062)scale(0.18 -0.18)">
      <use transform="translate(0 0.421875)" xlink:href="#Arial-ItalicMT-107"/>
     </g>
    </g>
   </g>
   <g id="matplotlib.axis_2">
    <g id="ytick_1">
     <g id="line2d_22">
      <path clip-path="url(#p28db8bc064)" d="M 63.705 317.8793 
L 510.105 317.8793 
" style="fill:none;stroke:#cccccc;stroke-dasharray:3.7,1.6;stroke-dashoffset:0;"/>
     </g>
     <g id="line2d_23">
      <defs>
       <path d="M 0 0 
L -6 0 
" id="m3069bb739c" style="stroke:#262626;stroke-width:1.25;"/>
      </defs>
      <g>
       <use style="fill:#262626;stroke:#262626;stroke-width:1.25;" x="63.705" xlink:href="#m3069bb739c" y="317.8793"/>
      </g>
     </g>
     <g id="text_4">
      <!-- $\mathdefault{10^{0}}$ -->
      <g style="fill:#262626;" transform="translate(28.3 326.387113)scale(0.165 -0.165)">
       <use transform="translate(0 0.99375)" xlink:href="#ArialMT-49"/>
       <use transform="translate(55.615234 0.99375)" xlink:href="#ArialMT-48"/>
       <use transform="translate(112.972813 70.6875)scale(0.7)" xlink:href="#ArialMT-48"/>
      </g>
     </g>
    </g>
    <g id="ytick_2">
     <g id="line2d_24">
      <path clip-path="url(#p28db8bc064)" d="M 63.705 209.280674 
L 510.105 209.280674 
" style="fill:none;stroke:#cccccc;stroke-dasharray:3.7,1.6;stroke-dashoffset:0;"/>
     </g>
     <g id="line2d_25">
      <g>
       <use style="fill:#262626;stroke:#262626;stroke-width:1.25;" x="63.705" xlink:href="#m3069bb739c" y="209.280674"/>
      </g>
     </g>
     <g id="text_5">
      <!-- $\mathdefault{10^{1}}$ -->
      <g style="fill:#262626;" transform="translate(28.3 217.788486)scale(0.165 -0.165)">
       <use transform="translate(0 0.99375)" xlink:href="#ArialMT-49"/>
       <use transform="translate(55.615234 0.99375)" xlink:href="#ArialMT-48"/>
       <use transform="translate(112.972813 70.6875)scale(0.7)" xlink:href="#ArialMT-49"/>
      </g>
     </g>
    </g>
    <g id="ytick_3">
     <g id="line2d_26">
      <path clip-path="url(#p28db8bc064)" d="M 63.705 100.682047 
L 510.105 100.682047 
" style="fill:none;stroke:#cccccc;stroke-dasharray:3.7,1.6;stroke-dashoffset:0;"/>
     </g>
     <g id="line2d_27">
      <g>
       <use style="fill:#262626;stroke:#262626;stroke-width:1.25;" x="63.705" xlink:href="#m3069bb739c" y="100.682047"/>
      </g>
     </g>
     <g id="text_6">
      <!-- $\mathdefault{10^{2}}$ -->
      <g style="fill:#262626;" transform="translate(28.3 109.18986)scale(0.165 -0.165)">
       <use transform="translate(0 0.99375)" xlink:href="#ArialMT-49"/>
       <use transform="translate(55.615234 0.99375)" xlink:href="#ArialMT-48"/>
       <use transform="translate(112.972813 70.6875)scale(0.7)" xlink:href="#ArialMT-50"/>
      </g>
     </g>
    </g>
    <g id="ytick_4">
     <g id="line2d_28">
      <defs>
       <path d="M 0 0 
L -4 0 
" id="mb397502e03" style="stroke:#262626;"/>
      </defs>
      <g>
       <use style="fill:#262626;stroke:#262626;" x="63.705" xlink:href="#mb397502e03" y="328.403595"/>
      </g>
     </g>
    </g>
    <g id="ytick_5">
     <g id="line2d_29">
      <g>
       <use style="fill:#262626;stroke:#262626;" x="63.705" xlink:href="#mb397502e03" y="322.848501"/>
      </g>
     </g>
    </g>
    <g id="ytick_6">
     <g id="line2d_30">
      <g>
       <use style="fill:#262626;stroke:#262626;" x="63.705" xlink:href="#mb397502e03" y="285.187856"/>
      </g>
     </g>
    </g>
    <g id="ytick_7">
     <g id="line2d_31">
      <g>
       <use style="fill:#262626;stroke:#262626;" x="63.705" xlink:href="#mb397502e03" y="266.064587"/>
      </g>
     </g>
    </g>
    <g id="ytick_8">
     <g id="line2d_32">
      <g>
       <use style="fill:#262626;stroke:#262626;" x="63.705" xlink:href="#mb397502e03" y="252.496412"/>
      </g>
     </g>
    </g>
    <g id="ytick_9">
     <g id="line2d_33">
      <g>
       <use style="fill:#262626;stroke:#262626;" x="63.705" xlink:href="#mb397502e03" y="241.972118"/>
      </g>
     </g>
    </g>
    <g id="ytick_10">
     <g id="line2d_34">
      <g>
       <use style="fill:#262626;stroke:#262626;" x="63.705" xlink:href="#mb397502e03" y="233.373143"/>
      </g>
     </g>
    </g>
    <g id="ytick_11">
     <g id="line2d_35">
      <g>
       <use style="fill:#262626;stroke:#262626;" x="63.705" xlink:href="#mb397502e03" y="226.102814"/>
      </g>
     </g>
    </g>
    <g id="ytick_12">
     <g id="line2d_36">
      <g>
       <use style="fill:#262626;stroke:#262626;" x="63.705" xlink:href="#mb397502e03" y="219.804968"/>
      </g>
     </g>
    </g>
    <g id="ytick_13">
     <g id="line2d_37">
      <g>
       <use style="fill:#262626;stroke:#262626;" x="63.705" xlink:href="#mb397502e03" y="214.249874"/>
      </g>
     </g>
    </g>
    <g id="ytick_14">
     <g id="line2d_38">
      <g>
       <use style="fill:#262626;stroke:#262626;" x="63.705" xlink:href="#mb397502e03" y="176.58923"/>
      </g>
     </g>
    </g>
    <g id="ytick_15">
     <g id="line2d_39">
      <g>
       <use style="fill:#262626;stroke:#262626;" x="63.705" xlink:href="#mb397502e03" y="157.465961"/>
      </g>
     </g>
    </g>
    <g id="ytick_16">
     <g id="line2d_40">
      <g>
       <use style="fill:#262626;stroke:#262626;" x="63.705" xlink:href="#mb397502e03" y="143.897785"/>
      </g>
     </g>
    </g>
    <g id="ytick_17">
     <g id="line2d_41">
      <g>
       <use style="fill:#262626;stroke:#262626;" x="63.705" xlink:href="#mb397502e03" y="133.373491"/>
      </g>
     </g>
    </g>
    <g id="ytick_18">
     <g id="line2d_42">
      <g>
       <use style="fill:#262626;stroke:#262626;" x="63.705" xlink:href="#mb397502e03" y="124.774517"/>
      </g>
     </g>
    </g>
    <g id="ytick_19">
     <g id="line2d_43">
      <g>
       <use style="fill:#262626;stroke:#262626;" x="63.705" xlink:href="#mb397502e03" y="117.504187"/>
      </g>
     </g>
    </g>
    <g id="ytick_20">
     <g id="line2d_44">
      <g>
       <use style="fill:#262626;stroke:#262626;" x="63.705" xlink:href="#mb397502e03" y="111.206341"/>
      </g>
     </g>
    </g>
    <g id="ytick_21">
     <g id="line2d_45">
      <g>
       <use style="fill:#262626;stroke:#262626;" x="63.705" xlink:href="#mb397502e03" y="105.651248"/>
      </g>
     </g>
    </g>
    <g id="ytick_22">
     <g id="line2d_46">
      <g>
       <use style="fill:#262626;stroke:#262626;" x="63.705" xlink:href="#mb397502e03" y="67.990603"/>
      </g>
     </g>
    </g>
    <g id="ytick_23">
     <g id="line2d_47">
      <g>
       <use style="fill:#262626;stroke:#262626;" x="63.705" xlink:href="#mb397502e03" y="48.867334"/>
      </g>
     </g>
    </g>
    <g id="ytick_24">
     <g id="line2d_48">
      <g>
       <use style="fill:#262626;stroke:#262626;" x="63.705" xlink:href="#mb397502e03" y="35.299159"/>
      </g>
     </g>
    </g>
    <g id="ytick_25">
     <g id="line2d_49">
      <g>
       <use style="fill:#262626;stroke:#262626;" x="63.705" xlink:href="#mb397502e03" y="24.774865"/>
      </g>
     </g>
    </g>
    <g id="ytick_26">
     <g id="line2d_50">
      <g>
       <use style="fill:#262626;stroke:#262626;" x="63.705" xlink:href="#mb397502e03" y="16.17589"/>
      </g>
     </g>
    </g>
    <g id="ytick_27">
     <g id="line2d_51">
      <g>
       <use style="fill:#262626;stroke:#262626;" x="63.705" xlink:href="#mb397502e03" y="8.905561"/>
      </g>
     </g>
    </g>
    <g id="text_7">
     <!-- $P(k)$ -->
     <defs>
      <path d="M 4.296875 0 
L 19.28125 71.578125 
L 49.171875 71.578125 
Q 56.9375 71.578125 60.8125 69.796875 
Q 64.703125 68.015625 67.234375 63.6875 
Q 69.78125 59.375 69.78125 54 
Q 69.78125 49.5625 67.96875 44.96875 
Q 66.15625 40.375 63.390625 37.390625 
Q 60.640625 34.421875 57.8125 32.90625 
Q 54.984375 31.390625 51.765625 30.671875 
Q 44.875 29.046875 37.84375 29.046875 
L 19.921875 29.046875 
L 13.875 0 
z
M 21.625 37.15625 
L 37.40625 37.15625 
Q 46.578125 37.15625 50.875 39.125 
Q 55.171875 41.109375 57.765625 45.15625 
Q 60.359375 49.21875 60.359375 53.765625 
Q 60.359375 57.28125 58.984375 59.5 
Q 57.625 61.71875 55.125 62.765625 
Q 52.640625 63.8125 45.5625 63.8125 
L 27.203125 63.8125 
z
" id="Arial-ItalicMT-80"/>
      <path d="M 23.390625 -21.046875 
Q 16.109375 -11.859375 11.078125 0.4375 
Q 6.0625 12.75 6.0625 25.921875 
Q 6.0625 37.546875 9.8125 48.1875 
Q 14.203125 60.546875 23.390625 72.796875 
L 29.6875 72.796875 
Q 23.78125 62.640625 21.875 58.296875 
Q 18.890625 51.5625 17.1875 44.234375 
Q 15.09375 35.109375 15.09375 25.875 
Q 15.09375 2.390625 29.6875 -21.046875 
z
" id="ArialMT-40"/>
      <path d="M 12.359375 -21.046875 
L 6.0625 -21.046875 
Q 20.65625 2.390625 20.65625 25.875 
Q 20.65625 35.0625 18.5625 44.09375 
Q 16.890625 51.421875 13.921875 58.15625 
Q 12.015625 62.546875 6.0625 72.796875 
L 12.359375 72.796875 
Q 21.53125 60.546875 25.921875 48.1875 
Q 29.6875 37.546875 29.6875 25.921875 
Q 29.6875 12.75 24.625 0.4375 
Q 19.578125 -11.859375 12.359375 -21.046875 
z
" id="ArialMT-41"/>
     </defs>
     <g style="fill:#262626;" transform="translate(20.34 186.84)rotate(-90)scale(0.18 -0.18)">
      <use transform="translate(0 0.203125)" xlink:href="#Arial-ItalicMT-80"/>
      <use transform="translate(66.699219 0.203125)" xlink:href="#ArialMT-40"/>
      <use transform="translate(100 0.203125)" xlink:href="#Arial-ItalicMT-107"/>
      <use transform="translate(150 0.203125)" xlink:href="#ArialMT-41"/>
     </g>
    </g>
   </g>
   <g id="PathCollection_1">
    <defs>
     <path d="M 0 3 
C 0.795609 3 1.55874 2.683901 2.12132 2.12132 
C 2.683901 1.55874 3 0.795609 3 0 
C 3 -0.795609 2.683901 -1.55874 2.12132 -2.12132 
C 1.55874 -2.683901 0.795609 -3 0 -3 
C -0.795609 -3 -1.55874 -2.683901 -2.12132 -2.12132 
C -2.683901 -1.55874 -3 -0.795609 -3 0 
C -3 0.795609 -2.683901 1.55874 -2.12132 2.12132 
C -1.55874 2.683901 -0.795609 3 0 3 
z
" id="m72e5d7d3d3" style="stroke:#4c72b0;"/>
    </defs>
    <g clip-path="url(#p28db8bc064)">
     <use style="fill:#4c72b0;stroke:#4c72b0;" x="84.392084" xlink:href="#m72e5d7d3d3" y="22.026682"/>
     <use style="fill:#4c72b0;stroke:#4c72b0;" x="120.16544" xlink:href="#m72e5d7d3d3" y="57.27803"/>
     <use style="fill:#4c72b0;stroke:#4c72b0;" x="145.54704" xlink:href="#m72e5d7d3d3" y="75.103981"/>
     <use style="fill:#4c72b0;stroke:#4c72b0;" x="165.234539" xlink:href="#m72e5d7d3d3" y="92.083072"/>
     <use style="fill:#4c72b0;stroke:#4c72b0;" x="181.320396" xlink:href="#m72e5d7d3d3" y="103.600325"/>
     <use style="fill:#4c72b0;stroke:#4c72b0;" x="194.920795" xlink:href="#m72e5d7d3d3" y="113.625527"/>
     <use style="fill:#4c72b0;stroke:#4c72b0;" x="206.701996" xlink:href="#m72e5d7d3d3" y="124.774517"/>
     <use style="fill:#4c72b0;stroke:#4c72b0;" x="217.093752" xlink:href="#m72e5d7d3d3" y="131.523694"/>
     <use style="fill:#4c72b0;stroke:#4c72b0;" x="226.389495" xlink:href="#m72e5d7d3d3" y="138.342692"/>
     <use style="fill:#4c72b0;stroke:#4c72b0;" x="234.798517" xlink:href="#m72e5d7d3d3" y="142.733188"/>
     <use style="fill:#4c72b0;stroke:#4c72b0;" x="242.475353" xlink:href="#m72e5d7d3d3" y="147.574747"/>
     <use style="fill:#4c72b0;stroke:#4c72b0;" x="249.537357" xlink:href="#m72e5d7d3d3" y="151.562793"/>
     <use style="fill:#4c72b0;stroke:#4c72b0;" x="256.075751" xlink:href="#m72e5d7d3d3" y="154.42208"/>
     <use style="fill:#4c72b0;stroke:#4c72b0;" x="262.162851" xlink:href="#m72e5d7d3d3" y="155.919469"/>
     <use style="fill:#4c72b0;stroke:#4c72b0;" x="267.856953" xlink:href="#m72e5d7d3d3" y="157.465961"/>
     <use style="fill:#4c72b0;stroke:#4c72b0;" x="273.205739" xlink:href="#m72e5d7d3d3" y="160.719926"/>
     <use style="fill:#4c72b0;stroke:#4c72b0;" x="278.248709" xlink:href="#m72e5d7d3d3" y="166.064935"/>
     <use style="fill:#4c72b0;stroke:#4c72b0;" x="287.544451" xlink:href="#m72e5d7d3d3" y="169.997527"/>
     <use style="fill:#4c72b0;stroke:#4c72b0;" x="299.875361" xlink:href="#m72e5d7d3d3" y="172.094041"/>
     <use style="fill:#4c72b0;stroke:#4c72b0;" x="307.23195" xlink:href="#m72e5d7d3d3" y="184.254237"/>
     <use style="fill:#4c72b0;stroke:#4c72b0;" x="314.022065" xlink:href="#m72e5d7d3d3" y="190.157405"/>
     <use style="fill:#4c72b0;stroke:#4c72b0;" x="323.317807" xlink:href="#m72e5d7d3d3" y="196.906582"/>
     <use style="fill:#4c72b0;stroke:#4c72b0;" x="326.210786" xlink:href="#m72e5d7d3d3" y="200.681699"/>
     <use style="fill:#4c72b0;stroke:#4c72b0;" x="329.011909" xlink:href="#m72e5d7d3d3" y="204.785485"/>
     <use style="fill:#4c72b0;stroke:#4c72b0;" x="344.173905" xlink:href="#m72e5d7d3d3" y="226.102814"/>
     <use style="fill:#4c72b0;stroke:#4c72b0;" x="390.166865" xlink:href="#m72e5d7d3d3" y="233.373143"/>
     <use style="fill:#4c72b0;stroke:#4c72b0;" x="394.208547" xlink:href="#m72e5d7d3d3" y="241.972118"/>
     <use style="fill:#4c72b0;stroke:#4c72b0;" x="404.160262" xlink:href="#m72e5d7d3d3" y="252.496412"/>
     <use style="fill:#4c72b0;stroke:#4c72b0;" x="407.620626" xlink:href="#m72e5d7d3d3" y="266.064587"/>
     <use style="fill:#4c72b0;stroke:#4c72b0;" x="445.62772" xlink:href="#m72e5d7d3d3" y="285.187856"/>
     <use style="fill:#4c72b0;stroke:#4c72b0;" x="489.810098" xlink:href="#m72e5d7d3d3" y="317.8793"/>
    </g>
   </g>
   <g id="line2d_52">
    <path clip-path="url(#p28db8bc064)" d="M 84.392084 33.630327 
L 489.810098 314.554014 
" style="fill:none;stroke:#4c72b0;stroke-linecap:round;stroke-width:1.5;"/>
   </g>
   <g id="patch_3">
    <path d="M 63.705 333.36 
L 63.705 7.2 
" style="fill:none;stroke:#262626;stroke-linecap:square;stroke-linejoin:miter;stroke-width:1.25;"/>
   </g>
   <g id="patch_4">
    <path d="M 510.105 333.36 
L 510.105 7.2 
" style="fill:none;stroke:#262626;stroke-linecap:square;stroke-linejoin:miter;stroke-width:1.25;"/>
   </g>
   <g id="patch_5">
    <path d="M 63.705 333.36 
L 510.105 333.36 
" style="fill:none;stroke:#262626;stroke-linecap:square;stroke-linejoin:miter;stroke-width:1.25;"/>
   </g>
   <g id="patch_6">
    <path d="M 63.705 7.2 
L 510.105 7.2 
" style="fill:none;stroke:#262626;stroke-linecap:square;stroke-linejoin:miter;stroke-width:1.25;"/>
   </g>
  </g>
 </g>
 <defs>
  <clipPath id="p28db8bc064">
   <rect height="326.16" width="446.4" x="63.705" y="7.2"/>
  </clipPath>
 </defs>
</svg>
