,EX_lys__L_e,EX_thr__L_e,EX_arg__L_e,EX_ile__L_e,EX_phe__L_e,EX_leu__L_e,EX_val__L_e,EX_met__L_e,EX_trp__L_e,EX_his__L_e,EX_cys__L_e
EX_lys__L_e,0.0,0.0,0.0,0.0,0.0,0.0,0.0,0.0,0.0,0.0,0.0
EX_thr__L_e,6.8609784817278054,0.0,0.0,0.0,0.0,0.0,0.0,0.0,0.0,0.0,0.0
EX_met__L_e,6.863838025018464,3.560403941223478,3.536280966902038,3.3502965187052953,3.2082812919535213,2.8920284766279147,1.9429411051585754,0.0,0.0,0.0,0.0
EX_cys__L_e,0.0,0.0,0.0,0.0,0.0,0.0,0.0,0.0,0.0,0.0,0.0
EX_trp__L_e,0.0,0.0,0.0,0.0,0.0,0.0,0.0,0.0,0.0,0.0,0.0
EX_ile__L_e,8.27709297160305,0.4949646011244781,0.4381364404633925,0.0,0.0,0.0,0.0,0.0,0.0,0.0,0.0
EX_val__L_e,16.182180255693236,5.318964326290484,5.2396368530411355,4.62803414839416,4.161022537345054,3.1210373177166164,0.0,0.0,0.0,0.0,0.0
EX_leu__L_e,9.096892182230418,2.512834679392507,2.4221415740109435,1.7229115812712656,1.1889889499256476,0.0,0.0,0.0,0.0,0.0,0.0
EX_phe__L_e,0.0,0.0,0.0,0.0,0.0,0.0,0.0,0.0,0.0,0.0,0.0
EX_tyr__L_e,38.42390705261854,15.788506038173148,15.528620917870368,13.77368318195215,12.433636296752555,9.54813772877375,0.0,0.0,0.0,0.0,0.0
EX_his__L_e,0.0,0.0,0.0,0.0,0.0,0.0,0.0,0.0,0.0,0.0,0.0
EX_arg__L_e,0.0,0.0,0.0,0.0,0.0,0.0,0.0,0.0,0.0,0.0,0.0
EX_ala__L_e,24.731383369340115,0.0,0.0,0.0,0.0,0.0,0.0,0.0,0.0,0.0,0.0
EX_asn__L_e,0.0,0.0,0.0,0.0,0.0,0.0,0.0,0.0,0.0,0.0,0.0
EX_asp__L_e,36.64883675488348,25.237105240057208,24.810299353744625,22.06371280829034,19.96645621061314,15.75184606352303,4.66612351475572,0.0,0.0,0.0,0.0
EX_gln__L_e,0.0,0.0,0.0,0.0,0.0,0.0,0.0,0.0,0.0,0.0,0.0
EX_glu__L_e,33.894384543465506,0.0,0.0,0.0,0.0,0.0,0.0,0.0,0.0,0.0,0.0
EX_gly_e,48.575972976886995,25.45781135062396,25.244053256725397,23.596010995787218,22.337588059607004,19.535213937196314,10.605411493670614,0.0,0.0,0.0,0.0
EX_ser__L_e,0.0,0.0,0.0,0.0,0.0,0.0,0.0,0.0,0.0,0.0,0.0
EX_pro__L_e,36.315326860059194,19.51506005853284,19.429779972090333,18.772283528748375,18.270228075214355,17.152203943145466,13.796968722070643,0.0,0.0,0.0,0.0
