100195133,NP_001133634
100195133,ACI33612
100196460,ACN10462
100196460,NP_001134961
100196460,ACI69651
106592678,ACN58716
106592678,ACI34202
106590260,ACN11110
100196235,NP_001134736
100196235,ACI68636
100196233,NP_001134734
100196233,ACI68630
100196233,ADM15933
100195141,ACI33625
100195141,ACN11379
100195141,NP_001133642
100195147,ACM08498
100195147,ACI33638
100195147,NP_001133648
100380562,ACN11348
100380562,NP_001167318
106582613,ACI68458
106582613,ADM16190
106599099,ACN10920
106580430,ACI33809
100286487,ACM08564
100286487,ACM09807
100286487,NP_001139898
100196687,NP_001135181
100196687,ACI32905
100196688,NP_001135182
100196688,ACI32911
106612591,ACH70839
106612591,ACH70917
100195121,ACI33591
100195121,NP_001133622
100195121,ACN10681
100196692,ACI32999
100196692,NP_001135186
100196450,ADM15971
100196450,ACI69087
100196450,ACI69619
100196450,ADM16040
100196450,NP_001134951
106560816,ACI33023
100196214,NP_001134715
100196214,ACI68561
100196214,ACN12532
100196214,ACN10178
100196215,NP_001134716
100196215,ADM16016
100196215,ACN12689
100196215,ACI68568
100196215,AGH92528
100196215,ACN10329
106566120,ACI34054
100380340,ACN10808p4ha1)
100380340,NP_001167096p4ha1)
100196266,NP_001134767
100196266,ACI68794
106611485,ACN10640
106600595,ACI33525
106580000,ACN11474
106592407,ACI33512
106572614,ACI69136
106572614,ACI67396
100380763,ACN60333
100195398,NP_001133899
100195398,ACN10598
100195398,ACI34106
100196487,NP_001134988
100196487,ACI69757
100195397,NP_001133898
100195397,ACI34103
100196489,ACI69762
100196489,NP_001134990
100380798,NP_001167391
100380798,ACN10700
106602756,ACN58607
106599064,ACI34248
100195168,B5X2Z0
100195168,NP_001133669
100195168,ACI33671
106611232,ACH70723
106611232,ACI33406
100196494,ACH70789
100196494,ACI70175
100196494,ACI68926
100196494,ACI69772
100196494,NP_001134995
100196492,NP_001134993
100196492,ACI69767
100286671,ACM09573
100380546,NP_001167302
100380546,ACN11321
100380782,ACY82517
100380782,ABC95194
106613069,ACI68808
100306802,NP_001158813
100306802,ACN10523
100306805,NP_001158816
100306805,ACN10527
100195300,ACI33921
100195300,NP_001133801
100196879,ACI67330
100196879,NP_001135373
100196879,ACI69798
100196874,ACI69627
100196874,NP_001135368
100306814,NP_001158825
100306814,ACN10554
100196629,ADM16047
100196629,NP_001135130
100196629,ACI67521
100196629,ACM08442
100195992,ACI67747
100195992,ACN12592
100195992,ACN10237
100195992,NP_001134493
100195992,ACN62250
106573069,AAO33701
100196601,ACI32894
100196601,NP_001135102
106567627,ACH70916
106578507,ACI33614
100136353,ACI69110
100136353,ACN10154
100136353,NP_001116998
100136353,AAC03020
100136353,ACI67980
100136353,ADM15964
100136353,ACN12506
100136353,AGH92639
100194675,ACH85267
100136358,AAC69872
100196663,ACH70824
100196663,NP_001135164
100195336,NP_001133837
100195336,ACI33995
100196665,ACI66514
100196665,ACN12497
100196665,ADM16144
100196665,ACN10146
100196665,ACH70850
100196665,ACI67402
100196665,NP_001135166
106568771,ACI33737
106568771,ACI70129
106587214,ACN10472
106587214,ACN58696
100196674,ACH70965
100196674,ACH70966
100196674,NP_001135175
106599441,ACN10288
106599441,ACN12646
100196673,ACI67899
100196673,NP_001135174
100196673,ACI68220
100196673,ACH70948
100196673,ACI66609
100196673,ACI66104
106576140,ACN11196
100196671,NP_001135172
100196671,ACH70930
100195109,NP_001133610
100195109,ACI33566
106570841,ACH70656
106570841,ACI33954
100195346,NP_001133847
100195346,ACI34009
106586135,ACN11180
100196883,ACI70052
100196883,ACN10293
100196883,ACN12651
100196883,NP_001135377
100196883,ACI66387
106581960,ACN10606
100195559,ACI70150
100195559,ACI66086
100195559,ACI70192
100195559,ACI68129
100195559,ACN10812
100196648,NP_001135149
100196648,ACH70621
100136388,CAA06913
106585052,ACI33436
100306829,ACN10590
100306829,NP_001158840
100196419,ACI66505
100196419,NP_001134920
100196419,ACI69469
106577215,ACI66684
100196657,ACH70717
100196657,NP_001135158
100306833,NP_001158844
100306833,ACN10595
106573122,ACI32957
106611602,ACN10409
106611602,ACN12774
100194964,ACN10804
100194964,ACI33287
100194964,NP_001133465
100195810,NP_001134311
100195810,ACI67007
106608436,ACI67097
100195822,NP_001134323
100195822,ACI67056
100194731,ACH85368
100195817,ACI67038
106560282,ACN11035
100194712,ACH85323
106584055,ACN10195
106584055,ACN12549
106588651,ACI34345
106584056,ACM08303
106574493,ACM09501
100196702,NP_001135196
100196702,ACI33164
100194765,ACI32927
100194765,NP_001133266
100136402,CAD58715
100136402,NP_001117025
100136402,ACN58706
100136402,ACI33099
100136404,CAD89353
106584221,ACI34065
106564456,ACI33286
100194530,NP_001133088
100194530,ACH70672
100136417,ACN10292
100136417,ACH70936
100136417,ACN12650
100136417,CAJ76703
100136417,ACH70938
100136417,ACI69872
100136417,NP_001117033
100194501,ACH70613
100194501,NP_001133059
106563586,ACI34296
100194756,ACI32913
100194756,NP_001133257
106577739,ACN10827
100194994,ACI33346
100194994,NP_001133495
100194754,ACI32910
100194754,NP_001133255
106608869,ACI33259
100194749,ACI32901
100194749,ACI67705
100194749,NP_001133250
100194749,ACI70177
106562243,ACI34022
100194748,NP_001133249
100194748,ACI32899
106586678,ACI70090
100196069,B5XB27
100196069,ACI68047
100196069,NP_001134570
106610351,ACI68982
106610351,ACM09562
106610355,ACI69907
106610355,ACI67039
100196066,NP_001134567
100196066,ACI68035
106575942,ACH70937
106575942,ACH70939
106575942,ACH70940
106575942,ACH70941
106570014,ACM09766
106609123,ACN11051
100380605,NP_001167361
100380605,ACN11469
100380855,ACN60228
106560437,ACI33815
100286656,NP_001140068
100286656,ACM09477
100286653,ACN10020
100286653,ACN12441
100286653,ACN12367
100286653,ACM09472
100286653,NP_001140065
100286653,ACN10093
106573756,ACI33481
100380838,ACN11288p4ha2)
100380838,NP_001167431p4ha2)
100196287,NP_001134788
100196287,ACI68882
106610339,ACI66352
106610339,ACI67321
106610339,ACI68972
106610339,ACI70100
106610339,ADM16091
106610339,ACI68190
106610339,ACI68654
106583351,ACI70188
106568155,ACN58681
106573729,NP_001306947
106573729,ACN11437
106560660,ADM15955
106582438,ACY30369
106569066,ABS86775
100194920,ACI33207
100194920,NP_001133421
100380811,NP_001167404
100380811,ACN10886
106564857,ACN12543
106564857,ACN10189
100286615,ACM09301
100286615,ACM09621
100286615,NP_001140026
100286615,ACM08306
100286615,ACM08550
106574406,ACN11202
106591168,ACI33118
100194926,NP_001133427
100194926,ACI33215
100380824,NP_001167417
100380824,ACN11103
106570266,ACN10636
100380817,ACN11006
100380817,NP_001167410
100194911,ACI33184
100194911,NP_001133412
106608228,ACI33497
106564824,ACN11170
106584654,ACI33379
106584654,ACN10765
100196585,NP_001135086
100196585,ACI70101
100196585,ACI70145
100195250,ACI33838
100195250,NP_001133751
100195250,ACI66148
100195257,ACI33847
100195257,NP_001133758
100195257,ACH70772
100195261,ACI33856
100195261,NP_001133762
100196119,ACI68232
100196119,NP_001134620
100195268,ACI33869
100195268,NP_001133769
100195268,ACN10477
100196358,ACI67281
100196358,NP_001134859
100196358,ACI69178
100196358,ACM09052
100196358,ACI70133
106603558,ACI33799
106577388,ACH70612
100195237,ACI33812
100195237,NP_001133738
106566255,ACI34116
106567100,ACI68038
100380473,ACN11143
100380473,NP_001167229
100195484,ACI34262
100195484,NP_001133985
100195484,ACN11136
100195483,ACI34261
100195483,NP_001133984
100195480,ACI34257
100195480,NP_001133981
100196339,NP_001134840
100196339,ACI69105
106601351,ACI33980
100196338,ACI69099
100196338,NP_001134839
106602441,ACI67181
106602441,ADM16237
106602441,ACI66682
106602441,ACI68489
106569991,ACI69846
106610063,ACI68336
100380410,ACN10969
100380410,NP_001167165
106561845,ACI33796
106611136,ACI33056
100196154,NP_001134655
100196154,ACI68374
106568486,ACI33568
100195275,NP_001133776
100195275,ACI33880
100195273,ACI69791
100195273,ACI33877
100195273,NP_001133774
106580352,ACI33412LOC106580352)
106580352,ACI33655LOC106580352)
100217349,ACI34215
100217349,NP_001136188
106580346,ACI33161
106580346,ACN10793
106580581,ADL09137
106596912,ACI33919
106588296,ACI34233
100195656,ACI66425
100195656,NP_001134157
100195656,ADM15876
100195654,ACI66421
100195654,NP_001134155
106588465,ACN60349
106588465,ACI68471
106588465,B5XCA1
106569706,ACM09463
100195420,NP_001133921
100195420,ACI34142
100195420,ACN10791
100195420,ACN58684
100194572,ACH70746
100194572,NP_001133130
100194570,NP_001133128
100194570,ACI32915
100194570,ACH70740
106604481,ACI33801
100195419,ACI34141
100195419,NP_001133920
106575120,ACN10564phosphoribosylaminoimidazole synthetase(gart)
100136464,AAZ92542
100196719,ACI70170
100196719,ACI33358
100196719,NP_001135213
100196719,ACI67198
100196719,ACN10555
100196717,ACI33336
100196717,NP_001135211
100194550,ACI66736
100194550,ACH70703
100194550,ADM15927
100194550,NP_001133108
100194550,ACN10798
100194550,ACI70165
106602282,ACI69926
106602043,ACI33196
100194556,ACH70713
100194556,NP_001133114
100195695,ACI66563
100195695,NP_001134196
100195695,ACI66589
100195211,NP_001133712
100195211,ACI33754
100196780,NP_001135274
100196780,ACI34124
100196307,ACI70190
100196307,ACI68987
100196307,NP_001134808
106569985,ACI68071
106569985,ACN12560
106569985,ACI68030
106569985,ACN10206
106589759,ADM16164
106589759,ACI68959
100195460,ACI34219
100195460,NP_001133961
100196319,NP_001134820
100196319,ACI69035
100195468,NP_001133969
100195468,ACI34235
106570954,ACN11119
106588431,ACI66269
106568407,ACI32965
100195431,NP_001133932
100195431,ACI34161
100196524,ACI70163
100196524,ACN10743
100196524,ACI69921
106565361,ACN10247
106565361,ACN12602
100380278,NP_001167034
100380278,ACN10437
100194593,ACN12486
100194593,ACH70804
100194593,ACN10135
100194593,NP_001133151
100195201,ACI33729
100195201,NP_001133702
106612046,ADM16037
106612046,ACH70616
106612046,ACI69487
106612046,ACI67166
106612046,ACM08819
100194591,ACH70800
100194591,NP_001133149
100194597,ACH70814
100194597,ACN10496
100194597,NP_001135793
100195687,ACI66531
100195687,NP_001134188
106566687,ACN11355
106602007,ACI33107
100195935,NP_001134436
100195935,ACI67501
100306762,ACN12792
100306762,NP_001158773
100306762,ACN10426
100194840,NP_001133341
100194840,ACI33059
106561021,ACN58710
100195700,NP_001134201
100195700,ACI66577
100500786,ACG60321
106574312,ACN11432
106574312,ACN60225
100194818,NP_001133319
100194818,ACI33021
100195905,NP_001134406
100195905,ACI67397
100195905,ACI67138
106576722,ACN60178
106576722,ACN10810
106569196,ACI68367
100306756,NP_001158767
100306756,ACN10374
100306756,ACN12736
100195917,NP_001134418
100195917,ACI67433
100136513,NP_001117091
100136513,ABP63530
100194640,ACH70947
100194640,NP_001133197
106603064,ACN11106
100194645,ACH70964
100194645,NP_001133202
100194641,ACH70949
100194641,NP_001133198
100194641,ACI66741
100194641,ACI68017
100194644,NP_001133201
100194644,ACH70963
100136522,ACI70174
100136522,ACN10100
100136522,AAD11573
100136522,ACI68048
100136522,ACN12448
100136522,NP_001117099
100194639,ACH70946
100194639,ACN10254
100194639,ACN12610
100194639,NP_001133196
100194639,ACI67479
100194639,ACI66333
106562156,AGH92635
106568933,ACI33316
100195505,NP_001134006
100195505,ACI34298
100195504,NP_001134005
100195504,ACI34297
100195502,ACI34293
100195502,NP_001134003
100196830,ACI67448
100196830,NP_001135324
100136533,CAD58714
100136533,NP_001117108
100136533,ACI32916
100136539,AAK07737
100136539,ACH70721
100136539,NP_001117111
106589805,ACI33120
100306782,ACN10483
100306782,NP_001158793
100194624,ACH70901
100194624,ACH70903
100194624,ACH70904
100194624,NP_001133181
100194624,B5DGM7
100194623,ACH70902
100194623,ACH85353
100194623,NP_001133180
100194623,CBL79147
100194865,ACI33096
100194865,CBL79146
100194865,NP_001133366
100194620,B5DGM3
100194620,ACH70897
100194620,NP_001133177
100194862,ACI33093
100194862,NP_001133363
100194861,ACN11042
100194861,ACI33092
100194861,NP_001133362
100194622,ACH70900
100194622,ACM08654
100194622,NP_001133179
100194621,ACH70898
100194621,B5DGM4
100194621,ACM08209
100194621,NP_001133178
106610807,ACN10707
106610807,ACI34184
100136543,NP_001117114
100136543,ACI33922
100136543,AAZ73233
100194617,ACH70887
100194617,ACM09835
100194617,ACM09737
100194617,NP_001133174
100136546,ABD73809
100136546,NP_001117115
100194619,NP_001133176
100194619,ACH70893
106564313,ACM08569
100306790,NP_001158801
100306790,ACN10499
106605473,ACI34223
100195966,ACH70899
100195966,ACI67646
100195966,NP_001134467
100195966,ADM16119
100194636,ACH70931
100194636,ACH70932
100194636,NP_001133193
100194636,B5DGQ7
100194631,ACH70914
100194631,ACH70915
100194631,NP_001133188
100194630,ACH70913
100194630,NP_001133187
100194869,NP_001133370
100194869,ACI33102
106587404,ACN58622
106609240,ACN11078
106609240,ACI70091
106609240,ACI67446
100380728,ACN60281
100380727,ACN60279
100286782,NP_001140151
100286782,ACN62251
106600672,ACI33260
100196183,ACN10517
100196183,ACN12686
100196183,ACI68482
100196183,NP_001134684
100196183,ACN10326
106584300,ACI34035
106584548,ACI33289
106611334,ACN58629
106573636,ACN10842
106562504,ACN60280
100195073,ACI33507
100195073,ACN10881
100195073,NP_001133574
100196160,ADM16136
100196160,ACI67228
100196160,ADM16242
100196160,ACI68393
100196160,ACI68397
100196160,ACI67268
100196160,NP_001134661
106568020,ACI68112
106568020,ACH70652
106568020,ACI70178
106608385,ACN10637beta subunit(hadhb)
106608385,ACM08881beta subunit(hadhb)
106609239,ACI69471
106593044,ACI33582
106602847,ACN10482
106573681,ACI67363
100194806,NP_001133307
100194806,ACI33005
100286717,ACM08811
100286717,NP_001140129
100286709,ACM08325
100286709,NP_001140121
106585868,ACI69505
106585868,ACN12783
106585868,ACN10417
