saturation,consumption
40.00359502089606,1.0924369747899192
41.74088886891656,8.403361344537814
43.90778771401609,16.218487394957975
46.07738282478767,24.789915966386545
48.03127668179571,32.85714285714285
50.414775535882804,41.428571428571416
52.368669392890844,49.49579831932772
54.961578214173365,56.80672268907561
57.3351907607963,62.60504201680671
59.70880330741924,68.40336134453781
62.296319597357645,74.2016806722689
65.0914483440435,78.23529411764704
67.0255695861232,80.7563025210084
69.38929582528198,83.78151260504201
72.60953579292678,87.05882352941175
76.89749696670111,89.83193277310923
81.61416438233047,92.85714285714285
86.75774052936683,95.63025210084032
91.04120792702105,97.14285714285714
96.18118905316138,98.90756302521008
100.24895519705206,99.91596638655462
