EX_2hb_e,EX_2m3hbu_e,EX_2m3hvac_e,EX_2mcit_e,EX_2obut_e,EX_C02356_e,EX_c51crn_e,EX_pcrn_e,EX_ppa_e,EX_ppiogly_e,EX_tiggly_e
EX_1glyc_hs_e,EX_M01881_e,EX_M03131_e,EX_acgalfucgalacgalfuc12gal14acglcgalgluside_hs_e,EX_acgalfucgalacgalfucgalacglcgal14acglcgalgluside_hs_e,EX_acn13acngalgbside_hs_e,EX_acn23acngalgbside_hs_e,EX_acnacngal14acglcgalgluside_hs_e,EX_acnacngalgbside_hs_e,EX_acngalacglcgal14acglcgalgluside_hs_e,EX_crm_hs_e,EX_crmp_hs_e,EX_digalsgalside_hs_e,EX_fuc13galacglcgal14acglcgalgluside_hs_e,EX_fuc14galacglcgalgluside_hs_e,EX_fucacgalfucgalacglcgalgluside_hs_e,EX_fucacngal14acglcgalgluside_hs_e,EX_fucacngalacglcgalgluside_hs_e,EX_fucfuc12gal14acglcgalgluside_hs_e,EX_fucfuc132galacglcgal14acglcgalgluside_hs_e,EX_fucfucfucgalacglc13galacglcgal14acglcgalgluside_hs_e,EX_fucfucfucgalacglcgal14acglcgalgluside_hs_e,EX_fucfucgalacglcgalgluside_hs_e,EX_fucgal14acglcgalgluside_hs_e,EX_fucgalfucgalacglcgalgluside_hs_e,EX_fucgalgbside_hs_e,EX_ga1_hs_e,EX_galacglcgalgbside_hs_e,EX_galfuc12gal14acglcgalgluside_hs_e,EX_galfucgalacglcgal14acglcgalgluside_hs_e,EX_galgalfucfucgalacglcgalacglcgal14acglcgalgluside_hs_e,EX_galgalgalthcrm_hs_e,EX_galgluside_hs_e,EX_gbside_hs_e,EX_gd1b2_hs_e,EX_gd1b_hs_e,EX_gd1c_hs_e,EX_gluside_hs_e,EX_gm1_hs_e,EX_gm1b_hs_e,EX_gp1c_hs_e,EX_gp1calpha_hs_e,EX_gq1b_hs_e,EX_gq1balpha_hs_e,EX_gt1a_hs_e,EX_gt1b_hs_e,EX_lpchol_hs_e,EX_oagd3_hs_e,EX_oagt3_hs_e,EX_pa_hs_e,EX_pail_hs_e,EX_pailar_hs_e,EX_pailpalm_hs_e,EX_pchol2linl_hs_e,EX_pchol2ole_hs_e,EX_pchol2palm_hs_e,EX_pchol2ste_hs_e,EX_pcholar_hs_e,EX_pcholdoc_hs_e,EX_pcholeic_hs_e,EX_pcholet_hs_e,EX_pcholhep_hs_e,EX_pchollinl_hs_e,EX_pcholmyr_hs_e,EX_pcholn15_hs_e,EX_pcholn1836_hs_e,EX_pcholn183_hs_e,EX_pcholn19_hs_e,EX_pcholn201_hs_e,EX_pcholn203_hs_e,EX_pcholn204_hs_e,EX_pcholn205_hs_e,EX_pcholn224_hs_e,EX_pcholn2254_hs_e,EX_pcholn225_hs_e,EX_pcholn226_hs_e,EX_pcholn24_hs_e,EX_pcholn261_hs_e,EX_pcholn281_hs_e,EX_pcholn28_hs_e,EX_pcholole_hs_e,EX_pcholpalm_hs_e,EX_pcholpalme_hs_e,EX_pcholste_hs_e,EX_pe12_hs_e,EX_pe13_hs_e,EX_pe14_hs_e,EX_pe15_hs_e,EX_pe161_hs_e,EX_pe17_hs_e,EX_pe203_hs_e,EX_pe224_hs_e,EX_pe226_hs_e,EX_pe2linl_hs_e,EX_pear_hs_e,EX_pedh203_hs_e,EX_pelinl_hs_e,EX_peole_hs_e,EX_pepalm_hs_e,EX_sphmyln180241_hs_e,EX_sphmyln18114_hs_e,EX_sphmyln18115_hs_e,EX_sphmyln181161_hs_e,EX_sphmyln18116_hs_e,EX_sphmyln18117_hs_e,EX_sphmyln181181_hs_e,EX_sphmyln18118_hs_e,EX_sphmyln181201_hs_e,EX_sphmyln18120_hs_e,EX_sphmyln18121_hs_e,EX_sphmyln181221_hs_e,EX_sphmyln18122_hs_e,EX_sphmyln18123_hs_e,EX_sphmyln1824_hs_e,EX_sphmyln1825_hs_e,EX_sphmyln_hs_e,EX_xolest2_hs_e,EX_xolest_hs_e
EX_1glyc_hs_e,EX_M01881_e,EX_M03131_e,EX_acgalfucgalacgalfuc12gal14acglcgalgluside_hs_e,EX_acgalfucgalacgalfucgalacglcgal14acglcgalgluside_hs_e,EX_acn13acngalgbside_hs_e,EX_acn23acngalgbside_hs_e,EX_acnacngal14acglcgalgluside_hs_e,EX_acnacngalgbside_hs_e,EX_acngalacglcgal14acglcgalgluside_hs_e,EX_crm_hs_e,EX_crmp_hs_e,EX_digalsgalside_hs_e,EX_fuc13galacglcgal14acglcgalgluside_hs_e,EX_fuc14galacglcgalgluside_hs_e,EX_fucacgalfucgalacglcgalgluside_hs_e,EX_fucacngal14acglcgalgluside_hs_e,EX_fucacngalacglcgalgluside_hs_e,EX_fucfuc12gal14acglcgalgluside_hs_e,EX_fucfuc132galacglcgal14acglcgalgluside_hs_e,EX_fucfucfucgalacglc13galacglcgal14acglcgalgluside_hs_e,EX_fucfucfucgalacglcgal14acglcgalgluside_hs_e,EX_fucfucgalacglcgalgluside_hs_e,EX_fucgal14acglcgalgluside_hs_e,EX_fucgalfucgalacglcgalgluside_hs_e,EX_fucgalgbside_hs_e,EX_ga1_hs_e,EX_galacglcgalgbside_hs_e,EX_galfuc12gal14acglcgalgluside_hs_e,EX_galfucgalacglcgal14acglcgalgluside_hs_e,EX_galgalfucfucgalacglcgalacglcgal14acglcgalgluside_hs_e,EX_galgalgalthcrm_hs_e,EX_galgluside_hs_e,EX_gbside_hs_e,EX_gd1b2_hs_e,EX_gd1b_hs_e,EX_gd1c_hs_e,EX_gluside_hs_e,EX_gm1_hs_e,EX_gm1b_hs_e,EX_gp1c_hs_e,EX_gp1calpha_hs_e,EX_gq1b_hs_e,EX_gq1balpha_hs_e,EX_gt1a_hs_e,EX_gt1b_hs_e,EX_lpchol_hs_e,EX_oagd3_hs_e,EX_oagt3_hs_e,EX_pa_hs_e,EX_pail_hs_e,EX_pailar_hs_e,EX_pailpalm_hs_e,EX_pchol2linl_hs_e,EX_pchol2ole_hs_e,EX_pchol2palm_hs_e,EX_pchol2ste_hs_e,EX_pcholar_hs_e,EX_pcholdoc_hs_e,EX_pcholeic_hs_e,EX_pcholet_hs_e,EX_pcholhep_hs_e,EX_pchollinl_hs_e,EX_pcholmyr_hs_e,EX_pcholn15_hs_e,EX_pcholn1836_hs_e,EX_pcholn183_hs_e,EX_pcholn19_hs_e,EX_pcholn201_hs_e,EX_pcholn203_hs_e,EX_pcholn204_hs_e,EX_pcholn205_hs_e,EX_pcholn224_hs_e,EX_pcholn2254_hs_e,EX_pcholn225_hs_e,EX_pcholn226_hs_e,EX_pcholn24_hs_e,EX_pcholn261_hs_e,EX_pcholn281_hs_e,EX_pcholn28_hs_e,EX_pcholole_hs_e,EX_pcholpalm_hs_e,EX_pcholpalme_hs_e,EX_pcholste_hs_e,EX_pe12_hs_e,EX_pe13_hs_e,EX_pe14_hs_e,EX_pe15_hs_e,EX_pe161_hs_e,EX_pe17_hs_e,EX_pe203_hs_e,EX_pe224_hs_e,EX_pe226_hs_e,EX_pe2linl_hs_e,EX_pear_hs_e,EX_pedh203_hs_e,EX_pelinl_hs_e,EX_peole_hs_e,EX_pepalm_hs_e,EX_pnto__R_e,EX_sphmyln180241_hs_e,EX_sphmyln18114_hs_e,EX_sphmyln18115_hs_e,EX_sphmyln181161_hs_e,EX_sphmyln18116_hs_e,EX_sphmyln18117_hs_e,EX_sphmyln181181_hs_e,EX_sphmyln18118_hs_e,EX_sphmyln181201_hs_e,EX_sphmyln18120_hs_e,EX_sphmyln18121_hs_e,EX_sphmyln181221_hs_e,EX_sphmyln18122_hs_e,EX_sphmyln18123_hs_e,EX_sphmyln1824_hs_e,EX_sphmyln1825_hs_e,EX_sphmyln_hs_e,EX_xolest2_hs_e
EX_1glyc_hs_e,EX_HC02195_e,EX_M01881_e,EX_M03131_e,EX_acgalfucgalacgalfuc12gal14acglcgalgluside_hs_e,EX_acgalfucgalacgalfucgalacglcgal14acglcgalgluside_hs_e,EX_acn13acngalgbside_hs_e,EX_acn23acngalgbside_hs_e,EX_acnacngal14acglcgalgluside_hs_e,EX_acnacngalgbside_hs_e,EX_acngalacglcgal14acglcgalgluside_hs_e,EX_crm_hs_e,EX_crmp_hs_e,EX_digalsgalside_hs_e,EX_fuc13galacglcgal14acglcgalgluside_hs_e,EX_fuc14galacglcgalgluside_hs_e,EX_fucacgalfucgalacglcgalgluside_hs_e,EX_fucacngal14acglcgalgluside_hs_e,EX_fucacngalacglcgalgluside_hs_e,EX_fucfuc12gal14acglcgalgluside_hs_e,EX_fucfuc132galacglcgal14acglcgalgluside_hs_e,EX_fucfucfucgalacglc13galacglcgal14acglcgalgluside_hs_e,EX_fucfucfucgalacglcgal14acglcgalgluside_hs_e,EX_fucfucgalacglcgalgluside_hs_e,EX_fucgal14acglcgalgluside_hs_e,EX_fucgalfucgalacglcgalgluside_hs_e,EX_fucgalgbside_hs_e,EX_ga1_hs_e,EX_galacglcgalgbside_hs_e,EX_galfuc12gal14acglcgalgluside_hs_e,EX_galfucgalacglcgal14acglcgalgluside_hs_e,EX_galgalfucfucgalacglcgalacglcgal14acglcgalgluside_hs_e,EX_galgalgalthcrm_hs_e,EX_galgluside_hs_e,EX_gbside_hs_e,EX_gd1b2_hs_e,EX_gd1b_hs_e,EX_gd1c_hs_e,EX_gluside_hs_e,EX_gm1_hs_e,EX_gm1b_hs_e,EX_gp1c_hs_e,EX_gp1calpha_hs_e,EX_gq1b_hs_e,EX_gq1balpha_hs_e,EX_gt1a_hs_e,EX_gt1b_hs_e,EX_lpchol_hs_e,EX_oagd3_hs_e,EX_oagt3_hs_e,EX_pa_hs_e,EX_pail_hs_e,EX_pailar_hs_e,EX_pailpalm_hs_e,EX_pchol2linl_hs_e,EX_pchol2ole_hs_e,EX_pchol2palm_hs_e,EX_pchol2ste_hs_e,EX_pcholar_hs_e,EX_pcholdoc_hs_e,EX_pcholeic_hs_e,EX_pcholet_hs_e,EX_pcholhep_hs_e,EX_pchollinl_hs_e,EX_pcholmyr_hs_e,EX_pcholn15_hs_e,EX_pcholn1836_hs_e,EX_pcholn183_hs_e,EX_pcholn19_hs_e,EX_pcholn201_hs_e,EX_pcholn203_hs_e,EX_pcholn204_hs_e,EX_pcholn205_hs_e,EX_pcholn224_hs_e,EX_pcholn2254_hs_e,EX_pcholn225_hs_e,EX_pcholn226_hs_e,EX_pcholn24_hs_e,EX_pcholn261_hs_e,EX_pcholn281_hs_e,EX_pcholn28_hs_e,EX_pcholole_hs_e,EX_pcholpalm_hs_e,EX_pcholpalme_hs_e,EX_pcholste_hs_e,EX_pe12_hs_e,EX_pe13_hs_e,EX_pe14_hs_e,EX_pe15_hs_e,EX_pe161_hs_e,EX_pe17_hs_e,EX_pe203_hs_e,EX_pe224_hs_e,EX_pe226_hs_e,EX_pe2linl_hs_e,EX_pear_hs_e,EX_pedh203_hs_e,EX_pelinl_hs_e,EX_peole_hs_e,EX_pepalm_hs_e,EX_sphmyln180241_hs_e,EX_sphmyln18114_hs_e,EX_sphmyln18115_hs_e,EX_sphmyln181161_hs_e,EX_sphmyln18116_hs_e,EX_sphmyln18117_hs_e,EX_sphmyln181181_hs_e,EX_sphmyln18118_hs_e,EX_sphmyln181201_hs_e,EX_sphmyln18120_hs_e,EX_sphmyln18121_hs_e,EX_sphmyln181221_hs_e,EX_sphmyln18122_hs_e,EX_sphmyln18123_hs_e,EX_sphmyln1824_hs_e,EX_sphmyln1825_hs_e,EX_sphmyln_hs_e,EX_taur_e,EX_tca3s_e,EX_tcdca3s_e,EX_tchola_e,EX_tdca3s_e,EX_tdchola_e,EX_tdechola_e,EX_thyochol_e,EX_tudca3s_e,EX_xolest2_hs_e
EX_1glyc_hs_e,EX_M01881_e,EX_M03131_e,EX_acgalfucgalacgalfuc12gal14acglcgalgluside_hs_e,EX_acgalfucgalacgalfucgalacglcgal14acglcgalgluside_hs_e,EX_acn13acngalgbside_hs_e,EX_acn23acngalgbside_hs_e,EX_acnacngal14acglcgalgluside_hs_e,EX_acnacngalgbside_hs_e,EX_acngalacglcgal14acglcgalgluside_hs_e,EX_aracheth_e,EX_crm_hs_e,EX_crmp_hs_e,EX_didecaeth_e,EX_digalsgalside_hs_e,EX_diholineth_e,EX_docohxeth_e,EX_docteteth_e,EX_fuc13galacglcgal14acglcgalgluside_hs_e,EX_fuc14galacglcgalgluside_hs_e,EX_fucacgalfucgalacglcgalgluside_hs_e,EX_fucacngal14acglcgalgluside_hs_e,EX_fucacngalacglcgalgluside_hs_e,EX_fucfuc12gal14acglcgalgluside_hs_e,EX_fucfuc132galacglcgal14acglcgalgluside_hs_e,EX_fucfucfucgalacglc13galacglcgal14acglcgalgluside_hs_e,EX_fucfucfucgalacglcgal14acglcgalgluside_hs_e,EX_fucfucgalacglcgalgluside_hs_e,EX_fucgal14acglcgalgluside_hs_e,EX_fucgalfucgalacglcgalgluside_hs_e,EX_fucgalgbside_hs_e,EX_ga1_hs_e,EX_galacglcgalgbside_hs_e,EX_galfuc12gal14acglcgalgluside_hs_e,EX_galfucgalacglcgal14acglcgalgluside_hs_e,EX_galgalfucfucgalacglcgalacglcgal14acglcgalgluside_hs_e,EX_galgalgalthcrm_hs_e,EX_galgluside_hs_e,EX_gbside_hs_e,EX_gd1b2_hs_e,EX_gd1b_hs_e,EX_gd1c_hs_e,EX_gluside_hs_e,EX_gm1_hs_e,EX_gm1b_hs_e,EX_gp1c_hs_e,EX_gp1calpha_hs_e,EX_gq1b_hs_e,EX_gq1balpha_hs_e,EX_gt1a_hs_e,EX_gt1b_hs_e,EX_hepdeceth_e,EX_hexdeceeth_e,EX_lineth_e,EX_lpchol_hs_e,EX_oagd3_hs_e,EX_oagt3_hs_e,EX_oleth_e,EX_pail_hs_e,EX_pailar_hs_e,EX_pailpalm_hs_e,EX_pchol2linl_hs_e,EX_pchol2ole_hs_e,EX_pchol2palm_hs_e,EX_pchol2ste_hs_e,EX_pcholar_hs_e,EX_pcholdoc_hs_e,EX_pcholeic_hs_e,EX_pcholet_hs_e,EX_pcholhep_hs_e,EX_pchollinl_hs_e,EX_pcholmyr_hs_e,EX_pcholn15_hs_e,EX_pcholn1836_hs_e,EX_pcholn183_hs_e,EX_pcholn19_hs_e,EX_pcholn201_hs_e,EX_pcholn203_hs_e,EX_pcholn204_hs_e,EX_pcholn205_hs_e,EX_pcholn224_hs_e,EX_pcholn2254_hs_e,EX_pcholn225_hs_e,EX_pcholn226_hs_e,EX_pcholn24_hs_e,EX_pcholn261_hs_e,EX_pcholn281_hs_e,EX_pcholn28_hs_e,EX_pcholole_hs_e,EX_pcholpalm_hs_e,EX_pcholpalme_hs_e,EX_pcholste_hs_e,EX_pe12_hs_e,EX_pe13_hs_e,EX_pe14_hs_e,EX_pe15_hs_e,EX_pe161_hs_e,EX_pe17_hs_e,EX_pe203_hs_e,EX_pe224_hs_e,EX_pe226_hs_e,EX_pe2linl_hs_e,EX_pear_hs_e,EX_pedh203_hs_e,EX_pelinl_hs_e,EX_pendecaeth_e,EX_peole_hs_e,EX_pepalm_hs_e,EX_pmeth_e,EX_sphmyln180241_hs_e,EX_sphmyln18114_hs_e,EX_sphmyln18115_hs_e,EX_sphmyln181161_hs_e,EX_sphmyln18116_hs_e,EX_sphmyln18117_hs_e,EX_sphmyln181181_hs_e,EX_sphmyln18118_hs_e,EX_sphmyln181201_hs_e,EX_sphmyln18120_hs_e,EX_sphmyln18121_hs_e,EX_sphmyln181221_hs_e,EX_sphmyln18122_hs_e,EX_sphmyln18123_hs_e,EX_sphmyln1824_hs_e,EX_sphmyln1825_hs_e,EX_sphmyln_hs_e,EX_tetdecaeth_e,EX_trideceth_e,EX_xolest2_hs_e,EX_xolest_hs_e
EX_1glyc_hs_e,EX_M01881_e,EX_M03131_e,EX_acgalfucgalacgalfuc12gal14acglcgalgluside_hs_e,EX_acgalfucgalacgalfucgalacglcgal14acglcgalgluside_hs_e,EX_acn13acngalgbside_hs_e,EX_acn23acngalgbside_hs_e,EX_acnacngal14acglcgalgluside_hs_e,EX_acnacngalgbside_hs_e,EX_acngalacglcgal14acglcgalgluside_hs_e,EX_aracheth_e,EX_crm_hs_e,EX_crmp_hs_e,EX_didecaeth_e,EX_digalsgalside_hs_e,EX_diholineth_e,EX_docohxeth_e,EX_docteteth_e,EX_fuc13galacglcgal14acglcgalgluside_hs_e,EX_fuc14galacglcgalgluside_hs_e,EX_fucacgalfucgalacglcgalgluside_hs_e,EX_fucacngal14acglcgalgluside_hs_e,EX_fucacngalacglcgalgluside_hs_e,EX_fucfuc12gal14acglcgalgluside_hs_e,EX_fucfuc132galacglcgal14acglcgalgluside_hs_e,EX_fucfucfucgalacglc13galacglcgal14acglcgalgluside_hs_e,EX_fucfucfucgalacglcgal14acglcgalgluside_hs_e,EX_fucfucgalacglcgalgluside_hs_e,EX_fucgal14acglcgalgluside_hs_e,EX_fucgalfucgalacglcgalgluside_hs_e,EX_fucgalgbside_hs_e,EX_ga1_hs_e,EX_galacglcgalgbside_hs_e,EX_galfuc12gal14acglcgalgluside_hs_e,EX_galfucgalacglcgal14acglcgalgluside_hs_e,EX_galgalfucfucgalacglcgalacglcgal14acglcgalgluside_hs_e,EX_galgalgalthcrm_hs_e,EX_galgluside_hs_e,EX_gbside_hs_e,EX_gd1b2_hs_e,EX_gd1b_hs_e,EX_gd1c_hs_e,EX_gluside_hs_e,EX_gm1_hs_e,EX_gm1b_hs_e,EX_gp1c_hs_e,EX_gp1calpha_hs_e,EX_gq1b_hs_e,EX_gq1balpha_hs_e,EX_gt1a_hs_e,EX_gt1b_hs_e,EX_hepdeceth_e,EX_hexdeceeth_e,EX_lineth_e,EX_lpchol_hs_e,EX_oagd3_hs_e,EX_oagt3_hs_e,EX_oleth_e,EX_pail_hs_e,EX_pailar_hs_e,EX_pailpalm_hs_e,EX_pchol2linl_hs_e,EX_pchol2ole_hs_e,EX_pchol2palm_hs_e,EX_pchol2ste_hs_e,EX_pcholar_hs_e,EX_pcholdoc_hs_e,EX_pcholeic_hs_e,EX_pcholet_hs_e,EX_pcholhep_hs_e,EX_pchollinl_hs_e,EX_pcholmyr_hs_e,EX_pcholn15_hs_e,EX_pcholn1836_hs_e,EX_pcholn183_hs_e,EX_pcholn19_hs_e,EX_pcholn201_hs_e,EX_pcholn203_hs_e,EX_pcholn204_hs_e,EX_pcholn205_hs_e,EX_pcholn224_hs_e,EX_pcholn2254_hs_e,EX_pcholn225_hs_e,EX_pcholn226_hs_e,EX_pcholn24_hs_e,EX_pcholn261_hs_e,EX_pcholn281_hs_e,EX_pcholn28_hs_e,EX_pcholole_hs_e,EX_pcholpalm_hs_e,EX_pcholpalme_hs_e,EX_pcholste_hs_e,EX_pe12_hs_e,EX_pe13_hs_e,EX_pe14_hs_e,EX_pe15_hs_e,EX_pe161_hs_e,EX_pe17_hs_e,EX_pe203_hs_e,EX_pe224_hs_e,EX_pe226_hs_e,EX_pe2linl_hs_e,EX_pear_hs_e,EX_pedh203_hs_e,EX_pelinl_hs_e,EX_pendecaeth_e,EX_peole_hs_e,EX_pepalm_hs_e,EX_pmeth_e,EX_pnto__R_e,EX_sphmyln180241_hs_e,EX_sphmyln18114_hs_e,EX_sphmyln18115_hs_e,EX_sphmyln181161_hs_e,EX_sphmyln18116_hs_e,EX_sphmyln18117_hs_e,EX_sphmyln181181_hs_e,EX_sphmyln18118_hs_e,EX_sphmyln181201_hs_e,EX_sphmyln18120_hs_e,EX_sphmyln18121_hs_e,EX_sphmyln181221_hs_e,EX_sphmyln18122_hs_e,EX_sphmyln18123_hs_e,EX_sphmyln1824_hs_e,EX_sphmyln1825_hs_e,EX_sphmyln_hs_e,EX_tetdecaeth_e,EX_trideceth_e,EX_xolest2_hs_e
EX_1glyc_hs_e,EX_HC02195_e,EX_M01881_e,EX_M03131_e,EX_acgalfucgalacgalfuc12gal14acglcgalgluside_hs_e,EX_acgalfucgalacgalfucgalacglcgal14acglcgalgluside_hs_e,EX_acn13acngalgbside_hs_e,EX_acn23acngalgbside_hs_e,EX_acnacngal14acglcgalgluside_hs_e,EX_acnacngalgbside_hs_e,EX_acngalacglcgal14acglcgalgluside_hs_e,EX_aracheth_e,EX_crm_hs_e,EX_crmp_hs_e,EX_didecaeth_e,EX_digalsgalside_hs_e,EX_diholineth_e,EX_docohxeth_e,EX_docteteth_e,EX_fuc13galacglcgal14acglcgalgluside_hs_e,EX_fuc14galacglcgalgluside_hs_e,EX_fucacgalfucgalacglcgalgluside_hs_e,EX_fucacngal14acglcgalgluside_hs_e,EX_fucacngalacglcgalgluside_hs_e,EX_fucfuc12gal14acglcgalgluside_hs_e,EX_fucfuc132galacglcgal14acglcgalgluside_hs_e,EX_fucfucfucgalacglc13galacglcgal14acglcgalgluside_hs_e,EX_fucfucfucgalacglcgal14acglcgalgluside_hs_e,EX_fucfucgalacglcgalgluside_hs_e,EX_fucgal14acglcgalgluside_hs_e,EX_fucgalfucgalacglcgalgluside_hs_e,EX_fucgalgbside_hs_e,EX_ga1_hs_e,EX_galacglcgalgbside_hs_e,EX_galfuc12gal14acglcgalgluside_hs_e,EX_galfucgalacglcgal14acglcgalgluside_hs_e,EX_galgalfucfucgalacglcgalacglcgal14acglcgalgluside_hs_e,EX_galgalgalthcrm_hs_e,EX_galgluside_hs_e,EX_gbside_hs_e,EX_gd1b2_hs_e,EX_gd1b_hs_e,EX_gd1c_hs_e,EX_gluside_hs_e,EX_gm1_hs_e,EX_gm1b_hs_e,EX_gp1c_hs_e,EX_gp1calpha_hs_e,EX_gq1b_hs_e,EX_gq1balpha_hs_e,EX_gt1a_hs_e,EX_gt1b_hs_e,EX_hepdeceth_e,EX_hexdeceeth_e,EX_lineth_e,EX_lpchol_hs_e,EX_oagd3_hs_e,EX_oagt3_hs_e,EX_oleth_e,EX_pail_hs_e,EX_pailar_hs_e,EX_pailpalm_hs_e,EX_pchol2linl_hs_e,EX_pchol2ole_hs_e,EX_pchol2palm_hs_e,EX_pchol2ste_hs_e,EX_pcholar_hs_e,EX_pcholdoc_hs_e,EX_pcholeic_hs_e,EX_pcholet_hs_e,EX_pcholhep_hs_e,EX_pchollinl_hs_e,EX_pcholmyr_hs_e,EX_pcholn15_hs_e,EX_pcholn1836_hs_e,EX_pcholn183_hs_e,EX_pcholn19_hs_e,EX_pcholn201_hs_e,EX_pcholn203_hs_e,EX_pcholn204_hs_e,EX_pcholn205_hs_e,EX_pcholn224_hs_e,EX_pcholn2254_hs_e,EX_pcholn225_hs_e,EX_pcholn226_hs_e,EX_pcholn24_hs_e,EX_pcholn261_hs_e,EX_pcholn281_hs_e,EX_pcholn28_hs_e,EX_pcholole_hs_e,EX_pcholpalm_hs_e,EX_pcholpalme_hs_e,EX_pcholste_hs_e,EX_pe12_hs_e,EX_pe13_hs_e,EX_pe14_hs_e,EX_pe15_hs_e,EX_pe161_hs_e,EX_pe17_hs_e,EX_pe203_hs_e,EX_pe224_hs_e,EX_pe226_hs_e,EX_pe2linl_hs_e,EX_pear_hs_e,EX_pedh203_hs_e,EX_pelinl_hs_e,EX_pendecaeth_e,EX_peole_hs_e,EX_pepalm_hs_e,EX_pmeth_e,EX_sphmyln180241_hs_e,EX_sphmyln18114_hs_e,EX_sphmyln18115_hs_e,EX_sphmyln181161_hs_e,EX_sphmyln18116_hs_e,EX_sphmyln18117_hs_e,EX_sphmyln181181_hs_e,EX_sphmyln18118_hs_e,EX_sphmyln181201_hs_e,EX_sphmyln18120_hs_e,EX_sphmyln18121_hs_e,EX_sphmyln181221_hs_e,EX_sphmyln18122_hs_e,EX_sphmyln18123_hs_e,EX_sphmyln1824_hs_e,EX_sphmyln1825_hs_e,EX_sphmyln_hs_e,EX_taur_e,EX_tca3s_e,EX_tcdca3s_e,EX_tchola_e,EX_tdca3s_e,EX_tdchola_e,EX_tdechola_e,EX_tetdecaeth_e,EX_thyochol_e,EX_trideceth_e,EX_tudca3s_e,EX_xolest2_hs_e
