mps,mcs,mp_size,subset_size,network_size,dt
1,0,2,1515,10600,1.4540019035339355
2,0,2,1515,10600,2.211538314819336
3,0,2,1515,10600,3.374580144882202
4,0,2,1515,10600,4.489149808883667
5,0,2,1515,10600,5.106534004211426
6,0,2,1515,10600,6.188156604766846
7,0,2,1515,10600,7.187174558639526
8,0,2,1515,10600,7.856933116912842
9,0,2,1515,10600,8.835035800933838
10,0,2,1515,10600,9.812573194503784
11,0,2,1515,10600,11.552346467971802
12,0,2,1515,10600,12.473894596099854
13,0,2,1515,10600,14.150660037994385
14,0,2,1515,10600,15.30735182762146
15,0,2,1515,10600,15.886332511901855
16,0,2,1515,10600,16.404797554016113
17,0,2,1515,10600,17.323029041290283
18,0,2,1515,10600,17.842160940170288
19,0,2,1515,10600,19.098737478256226
20,0,2,1515,10600,20.028949737548828
21,0,2,1515,10600,20.808053255081177
22,0,2,1515,10600,21.91012191772461
23,0,2,1515,10600,22.634345054626465
24,0,2,1515,10600,23.71813654899597
25,0,2,1515,10600,24.604803562164307
26,0,2,1515,10600,25.553519010543823
27,0,2,1515,10600,26.2762451171875
28,0,2,1515,10600,26.842939376831055
29,0,2,1515,10600,27.678225994110107
30,0,2,1515,10600,28.870624542236328
31,0,2,1515,10600,29.901129245758057
32,0,2,1515,10600,30.7706401348114
33,0,2,1515,10600,31.49897003173828
34,1,2,1515,10600,32.797202587127686
35,1,2,1515,10600,33.20570230484009
36,1,2,1515,10600,34.41049790382385
37,1,2,1515,10600,35.61949586868286
38,1,2,1515,10600,36.525373220443726
39,1,2,1515,10600,38.28680086135864
40,1,2,1515,10600,39.78611660003662
41,1,2,1515,10600,41.51065540313721
42,1,2,1515,10600,41.84676122665405
43,1,2,1515,10600,42.03526020050049
44,1,2,1515,10600,42.77457523345947
45,1,2,1515,10600,44.638648986816406
46,1,2,1515,10600,46.31783652305603
47,1,2,1515,10600,48.06217837333679
48,1,2,1515,10600,49.890318870544434
49,1,2,1515,10600,51.38553500175476
50,1,2,1515,10600,52.75945043563843
51,1,2,1515,10600,53.762731313705444
52,1,2,1515,10600,54.61646008491516
53,1,2,1515,10600,54.76706051826477
54,1,2,1515,10600,55.38603138923645
55,1,2,1515,10600,56.249675035476685
56,1,2,1515,10600,59.144453287124634
57,1,2,1515,10600,60.779210567474365
58,1,2,1515,10600,61.73016548156738
59,1,2,1515,10600,62.946988344192505
60,1,2,1515,10600,63.95228719711304
61,1,2,1515,10600,65.62813520431519
62,1,2,1515,10600,66.11822271347046
63,1,2,1515,10600,66.82434058189392
64,1,2,1515,10600,69.16377139091492
65,1,2,1515,10600,70.54218292236328
66,1,2,1515,10600,72.29010486602783
67,1,2,1515,10600,73.13939023017883
68,1,2,1515,10600,75.06230473518372
69,1,2,1515,10600,76.65464377403259
70,1,2,1515,10600,77.6699845790863
71,1,2,1515,10600,79.4887342453003
72,1,2,1515,10600,81.83867812156677
73,1,2,1515,10600,83.74377727508545
74,1,2,1515,10600,84.92844533920288
75,1,2,1515,10600,85.9956066608429
76,1,2,1515,10600,86.84056448936462
77,1,2,1515,10600,89.03984951972961
78,1,2,1515,10600,90.42887473106384
79,1,2,1515,10600,91.7698450088501
80,1,2,1515,10600,93.48132681846619
81,1,2,1515,10600,96.76328086853027
82,1,2,1515,10600,98.72079372406006
83,1,2,1515,10600,101.43019556999207
84,1,2,1515,10600,102.98887324333191
85,1,2,1515,10600,105.09796929359436
86,1,2,1515,10600,106.0235025882721
87,1,2,1515,10600,107.46091198921204
88,1,2,1515,10600,109.55843353271484
89,1,2,1515,10600,110.7115592956543
90,1,2,1515,10600,110.86121273040771
91,1,2,1515,10600,111.46970319747925
92,1,2,1515,10600,113.20485997200012
93,1,2,1515,10600,114.82738614082336
94,1,2,1515,10600,115.75464057922363
95,1,2,1515,10600,117.00141596794128
96,1,2,1515,10600,117.80495882034302
97,1,2,1515,10600,118.65669274330139
98,1,2,1515,10600,119.68253684043884
99,1,2,1515,10600,120.94344973564148
100,1,2,1515,10600,122.23732614517212
101,1,2,1515,10600,123.96827530860901
102,1,2,1515,10600,125.53462719917297
103,1,2,1515,10600,126.54647374153137
104,1,2,1515,10600,127.83168458938599
105,1,2,1515,10600,128.37623691558838
106,1,2,1515,10600,130.03211903572083
107,1,2,1515,10600,131.70554399490356
108,1,2,1515,10600,133.97829008102417
109,1,2,1515,10600,135.57700443267822
110,1,2,1515,10600,137.7113287448883
111,1,2,1515,10600,139.9828953742981
112,1,2,1515,10600,141.8166744709015
113,1,2,1515,10600,143.2484860420227
114,1,2,1515,10600,144.33047485351562
115,1,2,1515,10600,145.83851528167725
116,1,2,1515,10600,147.50024104118347
117,1,2,1515,10600,149.29188132286072
118,1,2,1515,10600,151.6573405265808
119,1,2,1515,10600,153.41638946533203
120,1,2,1515,10600,154.99127793312073
121,1,2,1515,10600,158.02814555168152
122,1,2,1515,10600,159.61793446540833
123,1,2,1515,10600,164.262268781662
124,1,2,1515,10600,167.2091624736786
125,1,2,1515,10600,170.19967770576477
126,1,2,1515,10600,172.24645495414734
127,1,2,1515,10600,173.22840857505798
128,1,2,1515,10600,175.09119725227356
129,1,2,1515,10600,178.93115329742432
130,1,2,1515,10600,180.85426115989685
131,1,2,1515,10600,182.2386703491211
132,1,2,1515,10600,183.6134021282196
133,1,2,1515,10600,185.7820062637329
134,1,2,1515,10600,187.03665852546692
135,1,2,1515,10600,187.5515594482422
136,1,2,1515,10600,188.71455192565918
137,1,2,1515,10600,190.19081020355225
138,1,2,1515,10600,191.51681661605835
139,1,2,1515,10600,192.41548037528992
140,1,2,1515,10600,193.50409722328186
141,1,2,1515,10600,194.74989557266235
142,1,2,1515,10600,197.36400771141052
143,1,2,1515,10600,198.92259168624878
144,1,2,1515,10600,199.7424075603485
145,1,2,1515,10600,201.3889524936676
146,1,2,1515,10600,203.2526228427887
147,1,2,1515,10600,203.67759943008423
148,1,2,1515,10600,204.3009374141693
149,1,2,1515,10600,205.36448049545288
150,1,2,1515,10600,206.0117814540863
151,1,2,1515,10600,206.82200694084167
152,1,2,1515,10600,208.06826162338257
153,1,2,1515,10600,208.64406657218933
154,1,2,1515,10600,209.36484742164612
155,1,2,1515,10600,210.19862365722656
156,1,2,1515,10600,210.71029949188232
157,1,2,1515,10600,211.65178894996643
158,1,2,1515,10600,212.2706937789917
159,1,2,1515,10600,213.1199471950531
160,1,2,1515,10600,214.22003030776978
161,1,2,1515,10600,215.0713131427765
162,1,2,1515,10600,216.00036597251892
163,1,2,1515,10600,217.0814335346222
164,1,2,1515,10600,218.11792373657227
165,1,2,1515,10600,218.51499342918396
166,1,2,1515,10600,219.69982981681824
167,1,2,1515,10600,220.9451277256012
168,1,2,1515,10600,221.8338119983673
169,1,2,1515,10600,222.44620299339294
170,1,2,1515,10600,223.3231122493744
171,1,2,1515,10600,223.77390909194946
172,1,2,1515,10600,224.28608894348145
173,1,2,1515,10600,224.5513834953308
174,1,2,1515,10600,225.33346366882324
175,1,2,1515,10600,226.3078646659851
176,1,2,1515,10600,227.18133211135864
177,1,2,1515,10600,228.1363286972046
178,1,2,1515,10600,228.71231245994568
179,1,2,1515,10600,229.8767991065979
180,1,2,1515,10600,230.61782264709473
181,1,2,1515,10600,231.6382029056549
182,1,2,1515,10600,232.52632188796997
183,1,2,1515,10600,233.05968642234802
184,1,2,1515,10600,234.05358266830444
185,1,2,1515,10600,234.81751561164856
186,1,2,1515,10600,236.26023697853088
187,1,2,1515,10600,237.6048583984375
188,1,2,1515,10600,238.73740243911743
189,1,2,1515,10600,239.22762489318848
190,1,2,1515,10600,240.1122658252716
191,1,2,1515,10600,240.91963267326355
192,1,2,1515,10600,242.00496244430542
193,1,2,1515,10600,243.22485280036926
194,1,2,1515,10600,244.92279744148254
195,1,2,1515,10600,246.42176985740662
196,1,2,1515,10600,247.12785649299622
197,1,2,1515,10600,248.17212057113647
198,1,2,1515,10600,249.1645736694336
199,1,2,1515,10600,250.43383169174194
200,1,2,1515,10600,250.8368878364563
201,1,2,1515,10600,251.84752750396729
202,1,2,1515,10600,254.00375318527222
203,1,2,1515,10600,254.94438576698303
204,1,2,1515,10600,255.82358050346375
205,1,2,1515,10600,256.6250386238098
206,1,2,1515,10600,257.1870894432068
207,1,2,1515,10600,257.79549264907837
208,1,2,1515,10600,258.8203866481781
209,1,2,1515,10600,259.6825804710388
210,1,2,1515,10600,261.06311535835266
211,1,2,1515,10600,261.7453610897064
212,1,2,1515,10600,262.7956521511078
213,1,2,1515,10600,263.8294208049774
214,1,2,1515,10600,264.6422519683838
215,1,2,1515,10600,265.49070835113525
216,1,2,1515,10600,266.3409855365753
217,1,2,1515,10600,267.37579870224
218,1,2,1515,10600,268.9005982875824
219,1,2,1515,10600,269.65968322753906
220,1,2,1515,10600,270.7044196128845
221,1,2,1515,10600,271.7098038196564
222,1,2,1515,10600,272.81062841415405
223,1,2,1515,10600,273.53571581840515
224,1,2,1515,10600,275.21537709236145
225,1,2,1515,10600,275.94509840011597
226,1,2,1515,10600,276.6561975479126
227,1,2,1515,10600,277.6267502307892
228,1,2,1515,10600,278.4455647468567
229,1,2,1515,10600,278.9845769405365
230,1,2,1515,10600,280.0663628578186
231,1,2,1515,10600,280.91213941574097
232,1,2,1515,10600,281.04777336120605
233,1,2,1515,10600,281.1774265766144
234,1,2,1515,10600,281.52657771110535
235,1,2,1515,10600,282.5142488479614
236,1,2,1515,10600,283.06212067604065
237,1,2,1515,10600,283.8961350917816
238,1,2,1515,10600,284.5527367591858
239,1,2,1515,10600,285.9027621746063
240,1,2,1515,10600,287.0797531604767
241,1,2,1515,10600,288.0861887931824
242,1,2,1515,10600,289.0673062801361
243,1,2,1515,10600,290.773380279541
244,1,2,1515,10600,292.385085105896
245,1,2,1515,10600,294.02298307418823
246,1,2,1515,10600,294.6213858127594
247,1,2,1515,10600,296.16401982307434
248,1,2,1515,10600,297.5662941932678
249,1,2,1515,10600,299.15027356147766
250,1,2,1515,10600,300.5678081512451
251,1,2,1515,10600,301.52548360824585
252,1,2,1515,10600,303.0219213962555
253,1,2,1515,10600,304.74823021888733
254,1,2,1515,10600,305.7628924846649
255,1,2,1515,10600,307.10226941108704
256,1,2,1515,10600,309.09529161453247
257,1,2,1515,10600,309.9729437828064
258,1,2,1515,10600,311.59373593330383
259,1,2,1515,10600,312.7205526828766
260,1,2,1515,10600,313.69297766685486
261,1,2,1515,10600,314.7553143501282
262,1,2,1515,10600,316.79565477371216
263,1,2,1515,10600,318.1856827735901
264,1,2,1515,10600,319.8189821243286
265,1,2,1515,10600,321.7508988380432
266,1,2,1515,10600,323.15722942352295
267,1,2,1515,10600,325.0287411212921
268,1,2,1515,10600,327.01950216293335
269,1,2,1515,10600,327.1990237236023
270,1,2,1515,10600,328.9140453338623
271,1,2,1515,10600,330.69089460372925
272,1,2,1515,10600,332.84336280822754
273,1,2,1515,10600,334.9909703731537
274,1,2,1515,10600,336.67004895210266
275,1,2,1515,10600,338.086049079895
276,1,2,1515,10600,339.88936042785645
277,1,2,1515,10600,341.1789391040802
278,1,2,1515,10600,342.6783142089844
279,1,2,1515,10600,343.44626235961914
280,1,2,1515,10600,343.6068639755249
281,1,2,1515,10600,343.7868821620941
282,1,2,1515,10600,343.97039270401
283,1,2,1515,10600,344.15711736679077
284,1,2,1515,10600,344.35058188438416
285,1,2,1515,10600,344.54207038879395
286,1,2,1515,10600,344.75623059272766
287,1,2,1515,10600,344.9686646461487
288,1,2,1515,10600,345.1800973415375
289,1,2,1515,10600,345.4152913093567
290,1,2,1515,10600,345.6207790374756
291,1,2,1515,10600,346.51493096351624
292,1,2,1515,10600,348.2967481613159
293,1,2,1515,10600,349.7501263618469
294,1,2,1515,10600,352.7374315261841
295,1,2,1515,10600,354.0024559497833
296,1,2,1515,10600,356.1442699432373
297,1,2,1515,10600,356.9069948196411
298,1,2,1515,10600,358.13486909866333
299,1,2,1515,10600,359.0819230079651
300,1,2,1515,10600,359.5955801010132
301,1,2,1515,10600,360.96600890159607
302,1,2,1515,10600,362.4905107021332
303,1,2,1515,10600,363.4908561706543
304,1,2,1515,10600,364.99079942703247
305,1,2,1515,10600,366.8310329914093
306,1,2,1515,10600,368.43253779411316
307,1,2,1515,10600,369.293660402298
308,1,2,1515,10600,370.3734219074249
309,1,2,1515,10600,372.01534819602966
310,1,2,1515,10600,373.2119719982147
311,1,2,1515,10600,374.4222927093506
312,1,2,1515,10600,375.5773046016693
313,1,2,1515,10600,376.9774057865143
314,1,2,1515,10600,378.3229339122772
315,1,2,1515,10600,378.6749937534332
316,1,2,1515,10600,378.8016560077667
317,1,2,1515,10600,379.46544194221497
318,1,2,1515,10600,380.76918935775757
319,1,2,1515,10600,381.9482493400574
320,1,2,1515,10600,384.0232849121094
321,1,2,1515,10600,384.83177375793457
322,1,2,1515,10600,386.69783449172974
323,1,2,1515,10600,387.8901867866516
324,1,2,1515,10600,388.6654851436615
325,1,2,1515,10600,389.5772964954376
326,1,2,1515,10600,390.6058888435364
327,1,2,1515,10600,391.87524247169495
328,1,2,1515,10600,392.3070583343506
329,1,2,1515,10600,392.83036637306213
330,1,2,1515,10600,393.9634327888489
331,1,2,1515,10600,394.6671988964081
332,1,2,1515,10600,395.3803255558014
333,1,2,1515,10600,395.4800579547882
334,1,2,1515,10600,396.17984104156494
335,1,2,1515,10600,396.9098918437958
336,1,2,1515,10600,398.01845622062683
337,1,2,1515,10600,400.18328309059143
338,1,2,1515,10600,401.1088137626648
339,1,2,1515,10600,402.2847099304199
340,1,2,1515,10600,403.00948214530945
341,1,2,1515,10600,403.8043303489685
342,1,2,1515,10600,404.4992187023163
343,1,2,1515,10600,405.2941343784332
344,1,2,1515,10600,406.23664689064026
345,1,2,1515,10600,407.4908194541931
346,1,2,1515,10600,408.2734022140503
347,1,2,1515,10600,409.13612818717957
348,1,2,1515,10600,409.7227027416229
349,1,2,1515,10600,411.2377607822418
350,1,2,1515,10600,412.96722650527954
351,1,2,1515,10600,414.43931245803833
352,1,2,1515,10600,414.81658387184143
353,1,2,1515,10600,415.6868166923523
354,1,2,1515,10600,416.50917744636536
355,1,2,1515,10600,417.330979347229
356,1,2,1515,10600,418.1498565673828
357,1,2,1515,10600,418.5228314399719
358,1,2,1515,10600,419.5936563014984
359,1,2,1515,10600,420.83987259864807
360,1,2,1515,10600,421.8556549549103
361,1,2,1515,10600,422.38028287887573
362,1,2,1515,10600,422.9828870296478
363,1,2,1515,10600,423.91164803504944
364,1,2,1515,10600,424.3978750705719
365,1,2,1515,10600,425.77804493904114
366,1,2,1515,10600,426.42305874824524
367,1,2,1515,10600,427.4604585170746
368,1,2,1515,10600,428.335631608963
369,1,2,1515,10600,429.5026023387909
370,1,2,1515,10600,430.3304147720337
371,1,2,1515,10600,431.35968375205994
372,1,2,1515,10600,431.8723158836365
373,1,2,1515,10600,433.0489616394043
374,1,2,1515,10600,433.87956953048706
375,1,2,1515,10600,434.89952874183655
376,1,2,1515,10600,436.2131612300873
377,1,2,1515,10600,437.13491678237915
378,1,2,1515,10600,438.451452255249
379,1,2,1515,10600,439.5301103591919
380,1,2,1515,10600,440.56593775749207
381,1,2,1515,10600,443.7341196537018
382,1,2,1515,10600,447.80671429634094
383,1,2,1515,10600,450.13538694381714
384,1,2,1515,10600,453.26640272140503
385,1,2,1515,10600,453.7979531288147
386,1,2,1515,10600,455.49373960494995
387,1,2,1515,10600,456.1744463443756
388,1,2,1515,10600,457.04875349998474
389,1,2,1515,10600,459.2131071090698
390,1,2,1515,10600,461.35421800613403
391,1,2,1515,10600,465.1104850769043
392,1,2,1515,10600,466.38820791244507
393,1,2,1515,10600,467.439003944397
394,1,2,1515,10600,468.5877194404602
395,1,2,1515,10600,469.3213219642639
396,1,2,1515,10600,472.7958278656006
397,1,2,1515,10600,476.0193295478821
398,1,2,1515,10600,479.4708127975464
399,1,2,1515,10600,480.99277687072754
400,1,2,1515,10600,482.0143494606018
401,1,2,1515,10600,482.442177772522
402,1,2,1515,10600,482.62970638275146
403,1,2,1515,10600,483.94333577156067
404,1,2,1515,10600,485.1162414550781
405,1,2,1515,10600,487.1112787723541
406,1,2,1515,10600,489.195937871933
407,1,2,1515,10600,491.52892804145813
408,1,2,1515,10600,494.31267070770264
409,1,2,1515,10600,495.3894054889679
410,1,2,1515,10600,499.1986246109009
411,1,2,1515,10600,501.64415216445923
412,1,2,1515,10600,503.2042634487152
413,1,2,1515,10600,504.8235123157501
414,1,2,1515,10600,505.4798560142517
415,1,2,1515,10600,506.7516260147095
416,1,2,1515,10600,508.2829520702362
417,1,2,1515,10600,509.33849930763245
418,1,2,1515,10600,509.9777903556824
419,1,2,1515,10600,511.2848331928253
420,1,2,1515,10600,512.3689937591553
421,1,2,1515,10600,513.3744020462036
422,1,2,1515,10600,514.3675200939178
423,1,2,1515,10600,515.9289562702179
424,1,2,1515,10600,517.5775647163391
425,1,2,1515,10600,518.9535419940948
426,1,2,1515,10600,519.3175692558289
427,1,2,1515,10600,520.8009324073792
428,1,2,1515,10600,521.607766866684
429,1,2,1515,10600,522.0466215610504
430,1,2,1515,10600,523.0502319335938
431,1,2,1515,10600,524.1450757980347
432,1,2,1515,10600,525.8684859275818
433,1,2,1515,10600,527.6999588012695
434,1,2,1515,10600,529.1680364608765
435,1,2,1515,10600,529.8349633216858
436,1,2,1515,10600,531.8720502853394
437,1,2,1515,10600,532.9437911510468
438,1,2,1515,10600,534.6600379943848
439,1,2,1515,10600,537.1472363471985
440,1,2,1515,10600,538.9670279026031
441,1,2,1515,10600,540.7299036979675
442,1,2,1515,10600,542.2878317832947
443,1,2,1515,10600,543.8229846954346
444,1,2,1515,10600,544.4849917888641
445,1,2,1515,10600,545.794531583786
446,1,2,1515,10600,547.7201337814331
447,1,2,1515,10600,549.2440044879913
448,1,2,1515,10600,550.2968697547913
449,1,2,1515,10600,551.2503979206085
450,1,2,1515,10600,552.972977399826
451,1,2,1515,10600,554.5555167198181
452,1,2,1515,10600,555.9371058940887
453,1,2,1515,10600,557.1920053958893
454,1,2,1515,10600,559.5634994506836
455,1,2,1515,10600,560.3942782878876
456,1,2,1515,10600,561.2935018539429
457,1,2,1515,10600,562.0422384738922
458,1,2,1515,10600,563.2053091526031
459,1,2,1515,10600,564.0402202606201
460,1,2,1515,10600,565.907956123352
461,1,2,1515,10600,567.2844800949097
462,1,2,1515,10600,569.0594191551208
463,1,2,1515,10600,570.544680595398
464,1,2,1515,10600,572.3951301574707
465,1,2,1515,10600,574.8371222019196
466,1,2,1515,10600,576.0368168354034
467,1,2,1515,10600,577.4257578849792
468,1,2,1515,10600,578.6400587558746
469,1,2,1515,10600,579.0675792694092
470,1,2,1515,10600,579.600124835968
471,1,2,1515,10600,580.7872159481049
472,1,2,1515,10600,581.5936064720154
473,1,2,1515,10600,582.792219877243
474,1,2,1515,10600,584.4630229473114
475,1,2,1515,10600,585.3685958385468
476,1,2,1515,10600,586.6120858192444
477,1,2,1515,10600,587.1546666622162
478,1,2,1515,10600,588.1051452159882
479,1,2,1515,10600,588.711523771286
480,1,2,1515,10600,590.1772909164429
481,1,2,1515,10600,590.9869394302368
482,1,2,1515,10600,592.4694693088531
483,1,2,1515,10600,593.6660535335541
484,1,2,1515,10600,595.7827758789062
485,1,2,1515,10600,598.2547671794891
486,1,2,1515,10600,599.3316123485565
487,1,2,1515,10600,600.5426812171936
488,1,2,1515,10600,602.8041858673096
489,1,2,1515,10600,604.0711259841919
490,1,2,1515,10600,606.3395264148712
491,1,2,1515,10600,607.5673689842224
492,1,2,1515,10600,608.4527134895325
493,1,2,1515,10600,609.6395375728607
494,1,2,1515,10600,610.9145622253418
495,1,2,1515,10600,612.3819661140442
496,1,2,1515,10600,612.9683864116669
497,1,2,1515,10600,613.4072422981262
498,1,2,1515,10600,613.553852558136
499,1,2,1515,10600,613.707412481308
500,1,2,1515,10600,615.274974822998
501,1,2,1515,10600,616.7951245307922
502,1,2,1515,10600,618.0584852695465
503,1,2,1515,10600,619.6752781867981
504,1,2,1515,10600,620.8623232841492
505,1,2,1515,10600,621.5973560810089
506,1,2,1515,10600,622.8274455070496
507,1,2,1515,10600,624.0322229862213
508,1,2,1515,10600,624.9948220252991
509,1,2,1515,10600,625.8058016300201
510,1,2,1515,10600,627.2341301441193
511,1,2,1515,10600,628.0651276111603
512,1,2,1515,10600,629.6343584060669
513,1,2,1515,10600,630.4841847419739
514,1,2,1515,10600,631.4233763217926
515,1,2,1515,10600,632.8316226005554
516,1,2,1515,10600,633.8741824626923
517,1,2,1515,10600,634.9260499477386
518,1,2,1515,10600,636.2492771148682
519,1,2,1515,10600,637.0402390956879
520,1,2,1515,10600,637.9298720359802
521,1,2,1515,10600,638.8798305988312
522,1,2,1515,10600,640.0308701992035
523,1,2,1515,10600,641.2313439846039
524,1,2,1515,10600,641.9723618030548
525,1,2,1515,10600,643.1709418296814
526,1,2,1515,10600,644.0114526748657
527,1,2,1515,10600,645.2773540019989
528,1,2,1515,10600,646.5383150577545
529,1,2,1515,10600,647.6673700809479
530,1,2,1515,10600,648.8832154273987
531,1,2,1515,10600,650.0605342388153
532,1,2,1515,10600,651.3992087841034
533,1,2,1515,10600,652.5318655967712
534,1,2,1515,10600,653.4829449653625
535,1,2,1515,10600,654.1292190551758
536,1,2,1515,10600,654.7714729309082
537,1,2,1515,10600,655.4855918884277
538,1,2,1515,10600,656.1255402565002
539,1,2,1515,10600,656.9280099868774
540,1,2,1515,10600,657.4317109584808
541,1,2,1515,10600,658.2081589698792
542,1,2,1515,10600,659.248105764389
543,1,2,1515,10600,660.1307475566864
544,1,2,1515,10600,660.8241624832153
545,1,2,1515,10600,662.0429313182831
546,1,2,1515,10600,662.8907763957977
547,1,2,1515,10600,664.0297043323517
548,1,2,1515,10600,665.4003639221191
549,1,2,1515,10600,666.3320336341858
550,1,2,1515,10600,667.3115830421448
551,1,2,1515,10600,667.9898002147675
552,1,2,1515,10600,668.926600933075
553,1,2,1515,10600,669.4701766967773
554,1,2,1515,10600,670.2379062175751
555,1,2,1515,10600,671.1296343803406
556,1,2,1515,10600,672.6722402572632
557,1,2,1515,10600,673.306268453598
558,1,2,1515,10600,674.383364200592
559,1,2,1515,10600,675.041713476181
560,1,2,1515,10600,676.0242524147034
561,1,2,1515,10600,676.7889170646667
562,1,2,1515,10600,677.6795361042023
563,1,2,1515,10600,678.8990273475647
564,1,2,1515,10600,678.9897568225861
565,1,2,1515,10600,679.1972308158875
566,1,2,1515,10600,680.1459004878998
567,1,2,1515,10600,681.3257675170898
568,1,2,1515,10600,682.7186167240143
569,1,2,1515,10600,683.5570240020752
570,1,2,1515,10600,684.5830798149109
571,1,2,1515,10600,685.4963393211365
572,1,2,1515,10600,685.747695684433
573,1,2,1515,10600,686.9091138839722
574,1,2,1515,10600,687.7200245857239
575,1,2,1515,10600,688.7143392562866
576,1,2,1515,10600,689.7966122627258
577,1,2,1515,10600,690.6611907482147
578,1,2,1515,10600,691.0321726799011
579,1,2,1515,10600,691.1229569911957
580,1,2,1515,10600,691.2296710014343
581,1,2,1515,10600,691.748172044754
582,1,2,1515,10600,692.8795862197876
583,1,2,1515,10600,693.7244498729706
584,1,2,1515,10600,694.7211165428162
585,1,2,1515,10600,695.5408961772919
586,1,2,1515,10600,696.7411477565765
587,1,2,1515,10600,698.0433120727539
588,1,2,1515,10600,698.4319982528687
589,1,2,1515,10600,699.6770098209381
590,1,2,1515,10600,700.9002392292023
591,1,2,1515,10600,701.835622549057
592,1,2,1515,10600,702.686784029007
593,1,2,1515,10600,703.3317217826843
594,1,2,1515,10600,703.7047245502472
595,1,2,1515,10600,704.240077495575
596,1,2,1515,10600,704.7098178863525
597,1,2,1515,10600,705.4003224372864
598,1,2,1515,10600,706.3600883483887
599,1,2,1515,10600,707.196879863739
600,1,2,1515,10600,708.0482668876648
601,1,2,1515,10600,709.008734703064
602,1,2,1515,10600,710.0375242233276
603,1,2,1515,10600,710.7010526657104
604,1,2,1515,10600,711.6685307025909
605,1,2,1515,10600,713.1754360198975
606,1,2,1515,10600,714.3724122047424
607,1,2,1515,10600,715.3912198543549
608,1,2,1515,10600,716.077446937561
609,1,2,1515,10600,717.1295247077942
610,1,2,1515,10600,717.7610082626343
611,1,2,1515,10600,719.1070170402527
612,1,2,1515,10600,720.3479783535004
613,1,2,1515,10600,721.492915391922
614,1,2,1515,10600,722.4039692878723
615,1,2,1515,10600,723.5580422878265
616,1,2,1515,10600,724.1594309806824
617,1,2,1515,10600,727.1820724010468
618,1,2,1515,10600,728.3456768989563
619,1,2,1515,10600,729.2478098869324
620,1,2,1515,10600,730.5460693836212
621,1,2,1515,10600,731.1608865261078
622,1,2,1515,10600,732.6739511489868
623,1,2,1515,10600,734.0273673534393
624,1,2,1515,10600,734.8860747814178
625,1,2,1515,10600,735.9009766578674
626,1,2,1515,10600,736.4610106945038
627,1,2,1515,10600,737.76602602005
628,1,2,1515,10600,739.4397263526917
629,1,2,1515,10600,740.453022480011
630,1,2,1515,10600,741.3387596607208
631,1,2,1515,10600,741.9451928138733
632,1,2,1515,10600,742.0643827915192
633,1,2,1515,10600,742.1770837306976
634,1,2,1515,10600,742.4673056602478
635,1,2,1515,10600,742.8548460006714
636,1,2,1515,10600,742.9755263328552
637,1,2,1515,10600,743.0932121276855
638,1,2,1515,10600,744.1229975223541
639,1,2,1515,10600,745.833902835846
640,1,2,1515,10600,747.8748185634613
641,1,2,1515,10600,749.3668539524078
642,1,2,1515,10600,750.1477956771851
643,1,2,1515,10600,751.1082932949066
644,1,2,1515,10600,753.0586934089661
645,1,2,1515,10600,755.0141232013702
646,1,2,1515,10600,755.8468968868256
647,1,2,1515,10600,756.1889851093292
648,1,2,1515,10600,756.4362092018127
649,1,2,1515,10600,756.6326825618744
650,1,2,1515,10600,757.7576684951782
651,1,2,1515,10600,757.8873217105865
652,1,2,1515,10600,758.0132837295532
653,1,2,1515,10600,759.0315618515015
654,1,2,1515,10600,759.7975146770477
655,1,2,1515,10600,760.2014646530151
656,1,2,1515,10600,760.9083523750305
657,1,2,1515,10600,761.0290594100952
658,1,2,1515,10600,761.1477599143982
659,1,2,1515,10600,761.5786089897156
660,1,2,1515,10600,762.5829393863678
661,1,2,1515,10600,763.2012591362
662,1,2,1515,10600,763.5483331680298
663,1,2,1515,10600,764.0581645965576
664,1,2,1515,10600,764.6705272197723
665,1,2,1515,10600,765.8923182487488
666,1,2,1515,10600,767.891252040863
667,1,2,1515,10600,770.3252866268158
668,1,2,1515,10600,771.1645803451538
669,1,2,1515,10600,771.2952303886414
670,1,2,1515,10600,771.4533400535583
671,1,2,1515,10600,771.5959599018097
672,1,2,1515,10600,771.7555348873138
673,1,2,1515,10600,771.9270761013031
674,1,2,1515,10600,772.4935820102692
675,1,2,1515,10600,774.0624706745148
676,1,2,1515,10600,775.9063627719879
677,1,2,1515,10600,777.6459889411926
678,1,2,1515,10600,778.9048194885254
679,1,2,1515,10600,780.3999507427216
680,1,2,1515,10600,782.113201379776
681,1,2,1515,10600,783.6112976074219
682,1,2,1515,10600,783.9901788234711
683,1,2,1515,10600,784.1417467594147
684,1,2,1515,10600,784.2814002037048
685,1,2,1515,10600,784.4339942932129
686,1,2,1515,10600,784.5915734767914
687,1,2,1515,10600,784.737226486206
688,1,2,1515,10600,784.880842924118
689,1,2,1515,10600,786.4088323116302
690,1,2,1515,10600,786.9929885864258
691,1,2,1515,10600,788.3563749790192
692,1,2,1515,10600,789.5902075767517
693,1,2,1515,10600,791.1585421562195
694,1,2,1515,10600,791.5494935512543
695,1,2,1515,10600,791.695139169693
696,1,2,1515,10600,791.836755990982
697,1,2,1515,10600,791.9833369255066
698,1,2,1515,10600,792.6738936901093
699,1,2,1515,10600,793.9006006717682
700,1,2,1515,10600,794.1249988079071
701,1,2,1515,10600,794.3075113296509
702,1,2,1515,10600,795.5868091583252
703,1,2,1515,10600,797.0314853191376
704,1,2,1515,10600,798.803076505661
705,1,2,1515,10600,800.7554836273193
706,1,2,1515,10600,801.4150946140289
707,1,2,1515,10600,801.6033687591553
708,1,2,1515,10600,801.7908673286438
709,1,2,1515,10600,802.0068409442902
710,1,2,1515,10600,804.1970527172089
711,1,2,1515,10600,805.8875870704651
712,1,2,1515,10600,807.9182116985321
713,1,2,1515,10600,808.5907990932465
714,1,2,1515,10600,810.4370121955872
715,1,2,1515,10600,811.9460299015045
716,1,2,1515,10600,813.0092329978943
717,1,2,1515,10600,815.3391196727753
718,1,2,1515,10600,817.0123012065887
719,1,2,1515,10600,818.3043863773346
720,1,2,1515,10600,819.022266626358
721,1,2,1515,10600,819.8872754573822
722,1,2,1515,10600,821.9267163276672
723,1,2,1515,10600,825.5886721611023
724,1,2,1515,10600,832.1716639995575
725,1,2,1515,10600,833.632303237915
726,1,2,1515,10600,835.7073087692261
727,1,2,1515,10600,837.286292552948
728,1,2,1515,10600,839.1361029148102
729,1,2,1515,10600,840.4810018539429
730,1,2,1515,10600,842.3659579753876
731,1,2,1515,10600,843.7505297660828
732,1,2,1515,10600,845.8602497577667
733,1,2,1515,10600,848.1073579788208
734,1,2,1515,10600,850.2833163738251
735,1,2,1515,10600,852.9986507892609
736,1,2,1515,10600,855.595543384552
737,1,2,1515,10600,857.7140905857086
738,1,2,1515,10600,859.469973564148
739,1,2,1515,10600,860.5147783756256
740,1,2,1515,10600,861.1945383548737
741,1,2,1515,10600,861.7500829696655
742,1,2,1515,10600,861.9076735973358
743,1,2,1515,10600,862.4088189601898
744,1,2,1515,10600,863.4734814167023
745,1,2,1515,10600,864.279394865036
746,1,2,1515,10600,865.4534964561462
747,1,2,1515,10600,866.0277125835419
748,1,2,1515,10600,867.0789535045624
749,1,2,1515,10600,868.2146844863892
750,1,2,1515,10600,869.1966559886932
751,1,2,1515,10600,870.7466857433319
752,1,2,1515,10600,871.8363347053528
753,1,2,1515,10600,873.5395307540894
754,1,2,1515,10600,874.7794153690338
755,1,2,1515,10600,875.4396154880524
756,1,2,1515,10600,876.3882687091827
757,1,2,1515,10600,877.929610490799
758,1,2,1515,10600,878.5072000026703
759,1,2,1515,10600,878.7415735721588
760,1,2,1515,10600,880.2419040203094
761,1,2,1515,10600,881.6748955249786
762,1,2,1515,10600,882.784008026123
763,1,2,1515,10600,883.5648810863495
764,1,2,1515,10600,884.6016561985016
765,1,2,1515,10600,886.0735578536987
766,1,2,1515,10600,887.7266464233398
767,1,2,1515,10600,888.8435275554657
768,1,2,1515,10600,889.2306683063507
769,1,2,1515,10600,890.1232855319977
770,1,2,1515,10600,890.3257849216461
771,1,2,1515,10600,891.1960029602051
772,1,2,1515,10600,892.1888902187347
773,1,2,1515,10600,893.6160700321198
774,1,2,1515,10600,895.5572504997253
775,1,2,1515,10600,897.5401184558868
776,1,2,1515,10600,898.8287065029144
777,1,2,1515,10600,901.1707923412323
778,1,2,1515,10600,902.7441618442535
779,1,2,1515,10600,904.4374933242798
780,1,2,1515,10600,905.6783587932587
781,1,2,1515,10600,907.3053286075592
782,1,2,1515,10600,909.2003359794617
783,1,2,1515,10600,910.2376613616943
784,1,2,1515,10600,911.695296049118
785,1,2,1515,10600,912.1959898471832
786,1,2,1515,10600,913.186975479126
787,1,2,1515,10600,916.3506102561951
788,1,2,1515,10600,918.4290449619293
789,1,2,1515,10600,920.0922315120697
790,1,2,1515,10600,921.8655877113342
791,1,2,1515,10600,923.8128974437714
792,1,2,1515,10600,924.8868067264557
793,1,2,1515,10600,926.1264615058899
794,1,2,1515,10600,927.5575215816498
795,1,2,1515,10600,928.2945594787598
796,1,2,1515,10600,929.3557574748993
797,1,2,1515,10600,930.809075832367
798,1,2,1515,10600,932.3213248252869
799,1,2,1515,10600,932.7870864868164
800,1,2,1515,10600,933.6923680305481
801,1,2,1515,10600,935.0313544273376
802,1,2,1515,10600,935.8696944713593
803,1,2,1515,10600,937.7570507526398
804,1,2,1515,10600,938.8487541675568
805,1,2,1515,10600,939.8164494037628
806,1,2,1515,10600,940.923501253128
807,1,2,1515,10600,941.7899467945099
808,1,2,1515,10600,942.6378974914551
809,1,2,1515,10600,943.6672105789185
810,1,2,1515,10600,945.0614399909973
811,1,2,1515,10600,945.7322089672089
812,1,2,1515,10600,946.8365597724915
813,1,2,1515,10600,948.0705575942993
814,1,2,1515,10600,950.3671340942383
815,1,2,1515,10600,951.9179482460022
816,1,2,1515,10600,952.8123502731323
817,1,2,1515,10600,953.57421708107
818,1,2,1515,10600,954.6166636943817
819,1,2,1515,10600,955.420604467392
820,1,2,1515,10600,956.147866487503
821,1,2,1515,10600,958.1648886203766
822,1,2,1515,10600,960.7404265403748
823,1,2,1515,10600,962.8306453227997
824,1,2,1515,10600,963.0202090740204
825,1,2,1515,10600,963.2077114582062
826,1,2,1515,10600,964.0509948730469
827,1,2,1515,10600,965.9131059646606
828,1,2,1515,10600,967.6320593357086
829,1,2,1515,10600,968.769207239151
830,1,2,1515,10600,970.9776015281677
831,1,2,1515,10600,972.4369587898254
832,1,2,1515,10600,973.7177867889404
833,1,2,1515,10600,975.0344245433807
834,1,2,1515,10600,975.6433284282684
835,1,2,1515,10600,976.6037940979004
836,1,2,1515,10600,977.218183517456
837,1,2,1515,10600,978.5728979110718
838,1,2,1515,10600,979.1983926296234
839,1,2,1515,10600,979.8613030910492
840,1,2,1515,10600,980.9370059967041
841,1,2,1515,10600,981.299040555954
842,1,2,1515,10600,981.8715183734894
843,1,2,1515,10600,982.6501433849335
844,1,2,1515,10600,983.1537744998932
845,1,2,1515,10600,983.9291355609894
846,1,2,1515,10600,984.3058071136475
847,1,2,1515,10600,985.5874240398407
848,1,2,1515,10600,986.3639698028564
849,1,2,1515,10600,987.6301212310791
850,1,2,1515,10600,988.6713802814484
851,1,2,1515,10600,989.2403862476349
852,1,2,1515,10600,989.7834870815277
853,1,2,1515,10600,991.2142834663391
854,1,2,1515,10600,992.9948160648346
855,1,2,1515,10600,994.2235713005066
856,1,2,1515,10600,995.6842317581177
857,1,2,1515,10600,996.919469833374
858,1,2,1515,10600,997.6061730384827
859,1,2,1515,10600,998.7616338729858
860,1,2,1515,10600,999.8699147701263
861,1,2,1515,10600,1001.0592982769012
862,1,2,1515,10600,1001.506623506546
863,1,2,1515,10600,1001.6542026996613
864,1,2,1515,10600,1003.2440207004547
865,1,2,1515,10600,1004.8181014060974
866,1,2,1515,10600,1008.2083477973938
867,1,2,1515,10600,1010.2614796161652
868,1,2,1515,10600,1011.9276037216187
869,1,2,1515,10600,1012.4148654937744
870,1,2,1515,10600,1013.1668319702148
871,1,2,1515,10600,1014.0320816040039
872,1,2,1515,10600,1014.5589570999146
873,1,2,1515,10600,1014.7524700164795
874,1,2,1515,10600,1014.9469521045685
875,1,2,1515,10600,1015.1423242092133
876,1,2,1515,10600,1015.7806253433228
877,1,2,1515,10600,1015.9611458778381
878,1,2,1515,10600,1016.147679567337
879,1,2,1515,10600,1016.3162331581116
880,1,2,1515,10600,1016.4863250255585
881,1,2,1515,10600,1016.9860234260559
882,1,2,1515,10600,1017.1286473274231
883,1,2,1515,10600,1017.2687549591064
884,1,2,1515,10600,1017.8907697200775
885,1,2,1515,10600,1018.7095892429352
886,1,2,1515,10600,1019.3025646209717
887,1,2,1515,10600,1020.0505950450897
888,1,2,1515,10600,1020.1737594604492
889,1,2,1515,10600,1020.3153831958771
890,1,2,1515,10600,1020.4490315914154
891,1,2,1515,10600,1020.9427149295807
892,1,2,1515,10600,1021.8323709964752
893,1,2,1515,10600,1022.6172819137573
894,1,2,1515,10600,1023.7271387577057
895,1,2,1515,10600,1024.2554380893707
896,1,2,1515,10600,1025.0549919605255
897,1,2,1515,10600,1026.200492143631
898,1,2,1515,10600,1027.0643906593323
899,1,2,1515,10600,1027.1922228336334
900,1,2,1515,10600,1027.3246171474457
901,1,2,1515,10600,1027.4382848739624
902,1,2,1515,10600,1027.5559735298157
903,1,2,1515,10600,1027.6883664131165
904,1,2,1515,10600,1027.8120412826538
905,1,2,1515,10600,1027.9436864852905
906,1,2,1515,10600,1028.0713827610016
907,1,2,1515,10600,1029.2753896713257
908,1,2,1515,10600,1029.871907234192
909,1,2,1515,10600,1030.5510694980621
910,1,2,1515,10600,1030.7994377613068
911,1,2,1515,10600,1030.9300894737244
912,1,2,1515,10600,1031.0460340976715
913,1,2,1515,10600,1031.1746916770935
914,1,2,1515,10600,1031.3260836601257
915,1,2,1515,10600,1031.4437413215637
916,1,2,1515,10600,1031.5814039707184
917,1,2,1515,10600,1031.9673500061035
918,1,2,1515,10600,1032.3822696208954
919,1,2,1515,10600,1033.6257915496826
920,1,2,1515,10600,1035.031016111374
921,1,2,1515,10600,1035.991019487381
922,1,2,1515,10600,1036.1495711803436
923,1,2,1515,10600,1036.2996773719788
924,1,2,1515,10600,1036.8961153030396
925,1,2,1515,10600,1037.3713624477386
926,1,2,1515,10600,1037.5319352149963
927,1,2,1515,10600,1038.123892068863
928,1,2,1515,10600,1039.2300381660461
929,1,2,1515,10600,1039.8698897361755
930,1,2,1515,10600,1040.8206770420074
931,1,2,1515,10600,1041.8263185024261
932,1,2,1515,10600,1043.079516172409
933,1,2,1515,10600,1044.4257502555847
934,1,2,1515,10600,1045.9024214744568
935,1,2,1515,10600,1047.7517046928406
936,1,2,1515,10600,1048.3890087604523
937,1,2,1515,10600,1049.132299900055
938,1,2,1515,10600,1049.2909047603607
939,1,2,1515,10600,1050.0124442577362
940,1,2,1515,10600,1050.9860532283783
941,1,2,1515,10600,1051.6792101860046
942,1,2,1515,10600,1052.7782459259033
943,1,2,1515,10600,1052.951815366745
944,1,2,1515,10600,1053.6828377246857
945,1,2,1515,10600,1054.7400608062744
946,1,2,1515,10600,1056.0898442268372
947,1,2,1515,10600,1057.3173382282257
948,1,2,1515,10600,1058.2651677131653
949,1,2,1515,10600,1059.2066614627838
950,1,2,1515,10600,1060.1033067703247
951,1,2,1515,10600,1060.2359538078308
952,1,2,1515,10600,1060.3765804767609
953,1,2,1515,10600,1060.5082581043243
954,1,2,1515,10600,1061.0968673229218
955,1,2,1515,10600,1061.4280660152435
956,1,2,1515,10600,1061.5666987895966
957,1,2,1515,10600,1061.7113139629364
958,1,2,1515,10600,1061.8549304008484
959,1,2,1515,10600,1061.9925663471222
960,1,2,1515,10600,1062.1242158412933
961,1,2,1515,10600,1062.2588558197021
962,1,2,1515,10600,1063.3584547042847
963,1,2,1515,10600,1064.2388837337494
964,1,2,1515,10600,1064.3735566139221
965,1,2,1515,10600,1065.1397771835327
966,1,2,1515,10600,1066.4080774784088
967,1,2,1515,10600,1067.4638018608093
968,1,2,1515,10600,1068.3445885181427
969,1,2,1515,10600,1069.4780986309052
970,1,2,1515,10600,1071.299963235855
971,1,2,1515,10600,1072.7432763576508
972,1,2,1515,10600,1074.984884262085
973,1,2,1515,10600,1076.2675454616547
974,1,2,1515,10600,1077.7614250183105
975,1,2,1515,10600,1077.9279687404633
976,1,2,1515,10600,1078.1207530498505
977,1,2,1515,10600,1079.2863495349884
978,1,2,1515,10600,1079.92538189888
979,1,2,1515,10600,1080.9955282211304
980,1,2,1515,10600,1081.941724538803
981,1,2,1515,10600,1083.2266619205475
982,1,2,1515,10600,1084.300535917282
983,1,2,1515,10600,1085.2453742027283
984,1,2,1515,10600,1085.8382918834686
985,1,2,1515,10600,1086.9040327072144
986,1,2,1515,10600,1087.5114424228668
987,1,2,1515,10600,1088.2203974723816
988,1,2,1515,10600,1088.4457969665527
989,1,2,1515,10600,1089.0013451576233
990,1,2,1515,10600,1090.3494527339935
991,1,2,1515,10600,1091.782641172409
992,1,2,1515,10600,1092.3966934680939
993,1,2,1515,10600,1093.2543790340424
994,1,2,1515,10600,1094.333565711975
995,1,2,1515,10600,1095.6310741901398
996,1,2,1515,10600,1097.3054344654083
997,1,2,1515,10600,1098.1646757125854
998,1,2,1515,10600,1099.2933814525604
999,1,2,1515,10600,1100.1189625263214
1000,1,2,1515,10600,1100.880022764206
1001,1,2,1515,10600,1102.030114889145
1002,1,2,1515,10600,1102.6793901920319
1003,1,2,1515,10600,1103.7530589103699
1004,1,2,1515,10600,1104.7997980117798
1005,1,2,1515,10600,1105.721345424652
1006,1,2,1515,10600,1106.6643941402435
1007,1,2,1515,10600,1107.6752197742462
1008,1,2,1515,10600,1109.2647635936737
1009,1,2,1515,10600,1110.2765901088715
1010,1,2,1515,10600,1110.5857956409454
1011,1,2,1515,10600,1111.7151277065277
1012,1,2,1515,10600,1112.2327809333801
1013,1,2,1515,10600,1112.8611235618591
1014,1,2,1515,10600,1113.5288729667664
1015,1,2,1515,10600,1114.4039692878723
1016,1,2,1515,10600,1115.391859292984
1017,1,2,1515,10600,1116.2233402729034
1018,1,2,1515,10600,1116.816790819168
1019,1,2,1515,10600,1116.9102444648743
1020,1,2,1515,10600,1117.0070123672485
1021,1,2,1515,10600,1117.6516931056976
1022,1,2,1515,10600,1118.67227768898
1023,1,2,1515,10600,1119.3973760604858
1024,1,2,1515,10600,1120.4932086467743
1025,1,2,1515,10600,1121.326532125473
1026,1,2,1515,10600,1122.0561165809631
1027,1,2,1515,10600,1123.1131744384766
1028,1,2,1515,10600,1124.0417408943176
1029,1,2,1515,10600,1124.1934564113617
1030,1,2,1515,10600,1124.319121837616
1031,1,2,1515,10600,1124.471739768982
1032,1,2,1515,10600,1125.0129749774933
1033,1,2,1515,10600,1126.2089293003082
1034,1,2,1515,10600,1127.4308784008026
1035,1,2,1515,10600,1128.2640027999878
1036,1,2,1515,10600,1128.400118112564
1037,1,2,1515,10600,1128.53431224823
1038,1,2,1515,10600,1128.6739690303802
1039,1,2,1515,10600,1128.8033020496368
1040,1,2,1515,10600,1128.9289660453796
1041,1,2,1515,10600,1129.042202949524
1042,1,2,1515,10600,1129.1588633060455
1043,1,2,1515,10600,1129.2795429229736
1044,1,2,1515,10600,1129.3942358493805
1045,1,2,1515,10600,1129.513916015625
1046,1,2,1515,10600,1129.635305404663
1047,1,2,1515,10600,1129.752989768982
1048,1,2,1515,10600,1130.1933557987213
1049,1,2,1515,10600,1131.3230574131012
1050,1,2,1515,10600,1132.3240690231323
1051,1,2,1515,10600,1132.4540436267853
1052,1,2,1515,10600,1132.994604587555
1053,1,2,1515,10600,1134.1615343093872
1054,1,2,1515,10600,1135.4242429733276
1055,1,2,1515,10600,1136.4749808311462
1056,1,2,1515,10600,1136.6185972690582
1057,1,2,1515,10600,1136.7966554164886
1058,1,2,1515,10600,1137.1367495059967
1059,1,2,1515,10600,1138.0090188980103
1060,1,2,1515,10600,1139.6918425559998
1061,1,2,1515,10600,1141.3443338871002
1062,1,2,1515,10600,1142.1631751060486
1063,1,2,1515,10600,1142.331728219986
1064,1,2,1515,10600,1142.4784016609192
1065,1,2,1515,10600,1143.2354972362518
1066,1,2,1515,10600,1144.0734343528748
1067,1,2,1515,10600,1144.810146331787
1068,1,2,1515,10600,1145.6776430606842
1069,1,2,1515,10600,1146.8165504932404
1070,1,2,1515,10600,1147.1217124462128
1071,1,2,1515,10600,1147.8642930984497
1072,1,2,1515,10600,1148.8628685474396
1073,1,2,1515,10600,1149.4180626869202
1074,1,2,1515,10600,1151.081758737564
1075,1,2,1515,10600,1153.2136232852936
1076,1,2,1515,10600,1154.5915386676788
1077,1,2,1515,10600,1155.1750111579895
1078,1,2,1515,10600,1156.4149460792542
1079,1,2,1515,10600,1157.6499366760254
1080,1,2,1515,10600,1158.960128068924
1081,1,2,1515,10600,1159.9807589054108
1082,1,2,1515,10600,1160.509243965149
1083,1,2,1515,10600,1161.6861898899078
1084,1,2,1515,10600,1163.0326671600342
1085,1,2,1515,10600,1164.064104795456
1086,1,2,1515,10600,1164.7699029445648
1087,1,2,1515,10600,1166.3183314800262
1088,1,2,1515,10600,1167.5979979038239
1089,1,2,1515,10600,1168.5769090652466
1090,1,2,1515,10600,1169.495802640915
1091,1,2,1515,10600,1169.6355707645416
1092,1,2,1515,10600,1170.2020661830902
1093,1,2,1515,10600,1170.9241423606873
1094,1,2,1515,10600,1171.4128968715668
1095,1,2,1515,10600,1172.3639430999756
1096,1,2,1515,10600,1173.5402286052704
1097,1,2,1515,10600,1174.2468857765198
1098,1,2,1515,10600,1174.5670375823975
1099,1,2,1515,10600,1174.7186863422394
1100,1,2,1515,10600,1174.873815536499
1101,1,2,1515,10600,1175.0224206447601
1102,1,2,1515,10600,1175.438313484192
1103,1,2,1515,10600,1176.241200208664
1104,1,2,1515,10600,1177.1242039203644
1105,1,2,1515,10600,1177.2608332633972
1106,1,2,1515,10600,1177.4074153900146
1107,1,2,1515,10600,1177.564992904663
1108,1,2,1515,10600,1177.9846074581146
1109,1,2,1515,10600,1178.130247592926
1110,1,2,1515,10600,1178.280347585678
1111,1,2,1515,10600,1179.0418467521667
1112,1,2,1515,10600,1180.1803514957428
1113,1,2,1515,10600,1180.344916343689
1114,1,2,1515,10600,1180.5015470981598
1115,1,2,1515,10600,1180.6481564044952
1116,1,2,1515,10600,1180.825822353363
1117,1,2,1515,10600,1181.4422419071198
1118,1,2,1515,10600,1181.622759103775
1119,1,2,1515,10600,1183.180208683014
1120,1,2,1515,10600,1184.746553659439
1121,1,2,1515,10600,1185.6571588516235
1122,1,2,1515,10600,1185.863322019577
1123,1,2,1515,10600,1186.7978427410126
1124,1,2,1515,10600,1189.1737246513367
1125,1,2,1515,10600,1190.1512756347656
1126,1,2,1515,10600,1190.4560270309448
1127,1,2,1515,10600,1192.612913608551
1128,1,2,1515,10600,1194.4995274543762
1129,1,2,1515,10600,1194.795763015747
1130,1,2,1515,10600,1195.1149141788483
1131,1,2,1515,10600,1195.4819362163544
1132,1,2,1515,10600,1195.7741582393646
1133,1,2,1515,10600,1196.1133027076721
1134,1,2,1515,10600,1197.7171247005463
1135,1,2,1515,10600,1199.585242986679
1136,1,2,1515,10600,1200.338877916336
1137,1,2,1515,10600,1201.6843330860138
1138,1,2,1515,10600,1205.801341533661
1139,1,2,1515,10600,1208.3038744926453
1140,1,2,1515,10600,1210.5235142707825
1141,1,2,1515,10600,1212.430922985077
1142,1,2,1515,10600,1213.7900273799896
1143,1,2,1515,10600,1214.6335442066193
1144,1,2,1515,10600,1216.606705904007
1145,1,2,1515,10600,1218.5094935894012
1146,1,2,1515,10600,1221.0640766620636
1147,1,2,1515,10600,1223.5514125823975
1148,1,2,1515,10600,1226.3292043209076
1149,1,2,1515,10600,1227.7175006866455
1150,1,2,1515,10600,1228.7107894420624
1151,1,2,1515,10600,1229.0060338974
1152,1,2,1515,10600,1229.2683324813843
1153,1,2,1515,10600,1230.1141262054443
1154,1,2,1515,10600,1230.7074780464172
1155,1,2,1515,10600,1230.9408538341522
1156,1,2,1515,10600,1231.182701587677
1157,1,2,1515,10600,1232.38787484169
1158,1,2,1515,10600,1233.900307893753
1159,1,2,1515,10600,1234.1611742973328
1160,1,2,1515,10600,1235.4829261302948
1161,1,2,1515,10600,1237.5397040843964
1162,1,2,1515,10600,1239.4334383010864
1163,1,2,1515,10600,1239.6748473644257
1164,1,2,1515,10600,1240.7410345077515
1165,1,2,1515,10600,1241.0322813987732
1166,1,2,1515,10600,1241.350432395935
1167,1,3,1515,10600,1242.5115368366241
1168,1,2,1515,10600,1244.2943542003632
1169,1,2,1515,10600,1244.5167479515076
1170,1,2,1515,10600,1244.741126537323
1171,1,2,1515,10600,1245.9551105499268
1172,1,2,1515,10600,1247.070345401764
1173,1,2,1515,10600,1247.7595384120941
1174,1,2,1515,10600,1247.9769582748413
1175,1,2,1515,10600,1248.78582239151
1176,1,2,1515,10600,1250.582813501358
1177,1,2,1515,10600,1252.2112901210785
1178,1,3,1515,10600,1254.3304526805878
1179,1,4,1515,10600,1256.2917692661285
1180,1,2,1515,10600,1259.2185699939728
1181,1,3,1515,10600,1260.7835383415222
1182,1,2,1515,10600,1261.9197041988373
1183,1,2,1515,10600,1262.1640174388885
1184,1,2,1515,10600,1262.7098989486694
1185,1,2,1515,10600,1263.0420560836792
1186,1,2,1515,10600,1263.4309775829315
1187,1,2,1515,10600,1263.796005487442
1188,1,2,1515,10600,1264.2089397907257
1189,1,2,1515,10600,1265.729850769043
1190,1,4,1515,10600,1269.3706722259521
1191,1,4,1515,10600,1272.2328310012817
1192,2,2,1515,10600,1274.5849316120148
1193,2,2,1515,10600,1274.7903761863708
1194,2,2,1515,10600,1274.9878602027893
1195,2,2,1515,10600,1275.3843157291412
1196,2,2,1515,10600,1275.5765433311462
1197,3,2,1515,10600,1275.8383586406708
1198,3,2,1515,10600,1276.0706312656403
1199,3,2,1515,10600,1276.3369433879852
1200,3,2,1515,10600,1278.722754240036
1201,3,2,1515,10600,1281.2306742668152
1202,3,2,1515,10600,1282.2153866291046
1203,3,2,1515,10600,1283.5685369968414
1204,3,2,1515,10600,1285.2234983444214
1205,3,2,1515,10600,1286.113867521286
1206,3,2,1515,10600,1286.7790834903717
1207,3,2,1515,10600,1286.941617488861
1208,3,2,1515,10600,1287.2497947216034
1209,3,2,1515,10600,1288.7438530921936
1210,3,2,1515,10600,1290.2640872001648
1211,3,2,1515,10600,1291.2803974151611
1212,3,2,1515,10600,1292.1781539916992
1213,3,3,1515,10600,1293.7265198230743
1214,3,4,1515,10600,1296.0882680416107
1215,3,4,1515,10600,1297.6081671714783
1216,3,4,1515,10600,1298.5171270370483
1217,3,2,1515,10600,1298.9589474201202
1218,3,3,1515,10600,1299.2102763652802
1219,3,2,1515,10600,1299.9574570655823
1220,3,2,1515,10600,1300.1220149993896
1221,3,2,1515,10600,1300.2666282653809
1222,3,2,1515,10600,1300.4371736049652
1223,3,2,1515,10600,1300.598744392395
1224,3,2,1515,10600,1301.4515941143036
1225,3,2,1515,10600,1302.216551542282
1226,3,4,1515,10600,1303.3715007305145
1227,3,4,1515,10600,1304.7916119098663
1228,3,2,1515,10600,1305.5692522525787
1229,3,2,1515,10600,1306.6130485534668
1230,3,2,1515,10600,1307.3807077407837
1231,3,2,1515,10600,1308.4492313861847
1232,3,2,1515,10600,1308.6217999458313
1233,3,2,1515,10600,1308.9020228385925
1234,3,2,1515,10600,1310.1677706241608
1235,3,2,1515,10600,1310.319367647171
1236,3,2,1515,10600,1310.6965186595917
1237,3,2,1515,10600,1311.355633020401
1238,3,2,1515,10600,1313.0419132709503
1239,3,4,1515,10600,1314.5272138118744
1240,3,4,1515,10600,1317.2469215393066
1241,3,3,1515,10600,1318.06982755661
1242,3,3,1515,10600,1318.4438848495483
1243,3,2,1515,10600,1319.1576023101807
1244,3,2,1515,10600,1319.9451143741608
1245,3,2,1515,10600,1321.2522575855255
1246,3,2,1515,10600,1321.4138259887695
1247,3,2,1515,10600,1322.0172157287598
1248,3,2,1515,10600,1322.6806638240814
1249,3,2,1515,10600,1323.3614284992218
1250,3,4,1515,10600,1323.9324223995209
1251,3,2,1515,10600,1324.7348318099976
1252,3,2,1515,10600,1324.8784909248352
1253,3,4,1515,10600,1326.5071105957031
1254,3,3,1515,10600,1328.0126671791077
1255,3,3,1515,10600,1329.034155845642
1256,3,3,1515,10600,1329.8730781078339
1257,3,2,1515,10600,1330.5731830596924
1258,3,2,1515,10600,1331.244427204132
1259,3,2,1515,10600,1331.8597819805145
1260,3,2,1515,10600,1332.0293309688568
1261,3,2,1515,10600,1332.1799607276917
1262,3,2,1515,10600,1332.3268730640411
1263,3,2,1515,10600,1333.1507303714752
1264,3,2,1515,10600,1333.9949791431427
1265,3,4,1515,10600,1334.7430272102356
1266,3,4,1515,10600,1335.59596657753
1267,3,4,1515,10600,1336.6684310436249
1268,3,3,1515,10600,1337.7568476200104
1269,3,3,1515,10600,1338.594610452652
1270,3,3,1515,10600,1339.623911857605
1271,3,3,1515,10600,1340.8108403682709
1272,3,2,1515,10600,1341.7124614715576
1273,3,2,1515,10600,1342.3761806488037
1274,3,2,1515,10600,1343.2292325496674
1275,3,2,1515,10600,1343.9572887420654
1276,3,2,1515,10600,1345.8991487026215
1277,3,4,1515,10600,1347.6225328445435
1278,3,4,1515,10600,1348.8314847946167
1279,3,4,1515,10600,1350.1975455284119
1280,3,2,1515,10600,1351.358300447464
1281,3,2,1515,10600,1351.9148170948029
1282,3,2,1515,10600,1352.6125557422638
1283,3,2,1515,10600,1353.3063287734985
1284,3,2,1515,10600,1354.3236503601074
1285,3,2,1515,10600,1355.0945892333984
1286,3,2,1515,10600,1355.5845561027527
1287,3,2,1515,10600,1357.007890701294
1288,3,2,1515,10600,1357.9634428024292
1289,3,2,1515,10600,1359.4922301769257
1290,3,2,1515,10600,1360.2427515983582
1291,3,4,1515,10600,1361.292665719986
1292,3,3,1515,10600,1361.9967906475067
1293,3,4,1515,10600,1363.242854833603
1294,3,4,1515,10600,1365.0957293510437
1295,3,4,1515,10600,1365.9107460975647
1296,3,3,1515,10600,1366.7993977069855
1297,3,3,1515,10600,1368.1243798732758
1298,3,4,1515,10600,1369.4903526306152
1299,3,4,1515,10600,1370.2360954284668
1300,3,4,1515,10600,1370.6341388225555
1301,3,4,1515,10600,1371.258502960205
1302,3,2,1515,10600,1372.0311288833618
1303,3,3,1515,10600,1373.0703101158142
1304,3,2,1515,10600,1374.261688709259
1305,3,2,1515,10600,1376.146908044815
1306,3,2,1515,10600,1377.2357437610626
1307,3,2,1515,10600,1377.5239741802216
1308,3,2,1515,10600,1378.052532196045
1309,3,2,1515,10600,1378.7364449501038
1310,3,2,1515,10600,1379.115434885025
1311,3,4,1515,10600,1379.874409198761
1312,3,3,1515,10600,1380.963063955307
1313,3,2,1515,10600,1381.8368954658508
1314,3,3,1515,10600,1382.5460000038147
1315,3,2,1515,10600,1383.5703575611115
1316,3,4,1515,10600,1385.2048678398132
1317,3,4,1515,10600,1386.1508853435516
1318,3,3,1515,10600,1387.2070813179016
1319,3,2,1515,10600,1387.9606091976166
1320,3,3,1515,10600,1388.5715291500092
1321,3,3,1515,10600,1389.8002932071686
1322,3,2,1515,10600,1390.65474152565
1323,3,3,1515,10600,1391.9917027950287
1324,4,2,1515,10600,1393.2842998504639
1325,4,3,1515,10600,1394.497223854065
1326,4,2,1515,10600,1396.2297043800354
1327,4,2,1515,10600,1397.3293297290802
1328,4,2,1515,10600,1397.66073679924
1329,4,2,1515,10600,1398.21000790596
1330,4,2,1515,10600,1398.3446190357208
1331,4,3,1515,10600,1399.1704580783844
1332,4,4,1515,10600,1400.872365951538
1333,4,4,1515,10600,1401.9437470436096
1334,4,3,1515,10600,1402.7063632011414
1335,4,4,1515,10600,1403.7073903083801
1336,4,4,1515,10600,1405.447187423706
1337,4,4,1515,10600,1406.1368753910065
1338,4,4,1515,10600,1406.5986421108246
1339,4,4,1515,10600,1407.738618850708
1340,4,4,1515,10600,1408.6477324962616
1341,4,3,1515,10600,1409.8575041294098
1342,4,3,1515,10600,1411.277312040329
1343,4,3,1515,10600,1412.5044677257538
1344,4,4,1515,10600,1413.5039763450623
1345,4,4,1515,10600,1414.701133966446
1346,4,4,1515,10600,1415.6067123413086
1347,4,4,1515,10600,1416.6609551906586
1348,4,3,1515,10600,1417.9828391075134
1349,4,3,1515,10600,1418.5099573135376
1350,4,4,1515,10600,1420.152098417282
1351,4,3,1515,10600,1421.3918225765228
1352,4,4,1515,10600,1423.8667256832123
1353,4,4,1515,10600,1424.8463397026062
1354,4,4,1515,10600,1426.6684982776642
1355,4,3,1515,10600,1427.73792386055
1356,4,4,1515,10600,1428.6825728416443
1357,4,3,1515,10600,1429.8808767795563
1358,4,4,1515,10600,1431.131878376007
1359,4,4,1515,10600,1432.1006133556366
1360,4,4,1515,10600,1433.117591381073
1361,4,4,1515,10600,1433.659004688263
1362,4,4,1515,10600,1434.7568192481995
1363,4,4,1515,10600,1435.7785079479218
1364,4,3,1515,10600,1437.0920464992523
1365,4,3,1515,10600,1438.1400065422058
1366,4,3,1515,10600,1439.2436108589172
1367,4,4,1515,10600,1441.0450565814972
1368,4,3,1515,10600,1442.5049781799316
1369,4,3,1515,10600,1443.9189176559448
1370,4,3,1515,10600,1446.0665652751923
1371,4,3,1515,10600,1447.2815871238708
1372,4,3,1515,10600,1448.3983302116394
1373,5,3,1515,10600,1449.5437860488892
1374,5,4,1515,10600,1450.7951471805573
1375,6,3,1515,10600,1451.934067249298
1376,6,3,1515,10600,1453.230082988739
1377,6,4,1515,10600,1454.975373506546
1378,6,3,1515,10600,1457.287584066391
1379,6,3,1515,10600,1459.004917383194
1380,6,3,1515,10600,1460.2092728614807
1381,6,4,1515,10600,1461.8456284999847
1382,6,4,1515,10600,1463.6844637393951
1383,6,4,1515,10600,1465.3999416828156
1384,6,3,1515,10600,1467.108317375183
1385,6,3,1515,10600,1467.3440062999725
1386,6,3,1515,10600,1467.5823271274567
1387,6,3,1515,10600,1468.3044121265411
1388,6,3,1515,10600,1470.6148555278778
1389,6,3,1515,10600,1472.4077005386353
1390,6,4,1515,10600,1474.0696856975555
1391,6,3,1515,10600,1475.3243293762207
1392,6,3,1515,10600,1476.328113079071
1393,6,4,1515,10600,1477.387055158615
1394,6,3,1515,10600,1478.5255768299103
1395,6,3,1515,10600,1480.154483795166
1396,6,4,1515,10600,1482.2715318202972
1397,6,4,1515,10600,1483.954832792282
1398,6,4,1515,10600,1484.6709187030792
1399,6,4,1515,10600,1486.101449728012
1400,6,4,1515,10600,1488.053593158722
1401,6,4,1515,10600,1489.1472792625427
1402,6,3,1515,10600,1490.501800775528
1403,6,4,1515,10600,1492.5980644226074
1404,6,4,1515,10600,1496.1066935062408
1405,6,3,1515,10600,1497.8208312988281
1406,6,3,1515,10600,1499.4143130779266
1407,6,3,1515,10600,1500.3125236034393
1408,6,4,1515,10600,1502.1720974445343
1409,6,3,1515,10600,1503.6030757427216
1410,6,3,1515,10600,1504.844973564148
1411,6,3,1515,10600,1505.551127910614
1412,6,4,1515,10600,1506.4258542060852
1413,6,3,1515,10600,1508.7331233024597
1414,6,3,1515,10600,1509.7634127140045
1415,6,4,1515,10600,1511.6763525009155
1416,6,3,1515,10600,1513.3273861408234
1417,6,3,1515,10600,1515.1563675403595
1418,6,4,1515,10600,1516.6954276561737
1419,6,3,1515,10600,1518.4691741466522
1420,6,4,1515,10600,1520.1831729412079
1421,6,4,1515,10600,1522.6618025302887
1422,6,4,1515,10600,1523.7546372413635
1423,6,4,1515,10600,1525.1485731601715
1424,6,4,1515,10600,1526.0063261985779
1425,6,4,1515,10600,1527.6128070354462
1426,6,3,1515,10600,1529.487587928772
1427,6,3,1515,10600,1531.4576270580292
1428,6,4,1515,10600,1533.2042632102966
1429,6,3,1515,10600,1534.6853487491608
1430,6,3,1515,10600,1536.329656124115
1431,6,4,1515,10600,1538.0452013015747
1432,6,3,1515,10600,1540.3766198158264
1433,6,3,1515,10600,1541.4875407218933
1434,6,3,1515,10600,1543.1737871170044
1435,6,3,1515,10600,1544.3731677532196
1436,6,4,1515,10600,1546.6890823841095
1437,6,3,1515,10600,1550.2688796520233
1438,6,4,1515,10600,1551.8634321689606
1439,6,4,1515,10600,1553.305652141571
1440,6,4,1515,10600,1554.0396921634674
1441,6,4,1515,10600,1555.2923998832703
1442,6,4,1515,10600,1556.8759813308716
1443,6,3,1515,10600,1558.9149136543274
1444,6,3,1515,10600,1560.107827425003
1445,6,3,1515,10600,1560.3641691207886
1446,6,4,1515,10600,1561.4213650226593
1447,6,4,1515,10600,1561.888682126999
1448,6,4,1515,10600,1563.2835757732391
1449,6,3,1515,10600,1565.8054497241974
1450,6,3,1515,10600,1567.884150505066
1451,6,3,1515,10600,1570.234472990036
1452,6,3,1515,10600,1571.573879957199
1453,6,3,1515,10600,1572.8978803157806
1454,6,3,1515,10600,1573.8404393196106
1455,6,4,1515,10600,1575.8766877651215
1456,6,4,1515,10600,1577.0946261882782
1457,6,3,1515,10600,1578.7963659763336
1458,6,3,1515,10600,1579.9488492012024
1459,6,3,1515,10600,1581.2563428878784
1460,6,4,1515,10600,1582.7890281677246
1461,6,3,1515,10600,1584.1575734615326
1462,6,3,1515,10600,1584.346067905426
1463,6,3,1515,10600,1584.9704611301422
1464,6,4,1515,10600,1586.3766193389893
1465,6,4,1515,10600,1587.5077497959137
1466,6,4,1515,10600,1588.1328060626984
1467,6,3,1515,10600,1589.1312239170074
1468,6,3,1515,10600,1590.1438806056976
1469,6,3,1515,10600,1591.3868522644043
1470,6,3,1515,10600,1592.1637737751007
1471,6,4,1515,10600,1593.1676979064941
1472,6,3,1515,10600,1593.9268770217896
1473,6,4,1515,10600,1594.9696793556213
1474,6,3,1515,10600,1596.3446218967438
1475,6,4,1515,10600,1597.364060640335
1476,6,4,1515,10600,1598.0936510562897
1477,6,4,1515,10600,1599.0620665550232
1478,6,3,1515,10600,1600.105358839035
1479,6,4,1515,10600,1601.2101476192474
1480,6,4,1515,10600,1602.0656559467316
1481,6,3,1515,10600,1603.0510077476501
1482,6,3,1515,10600,1603.251469373703
1483,6,4,1515,10600,1604.3271312713623
1484,6,3,1515,10600,1605.602641582489
1485,6,4,1515,10600,1606.8655369281769
1486,6,3,1515,10600,1607.6769216060638
1487,6,3,1515,10600,1608.7218804359436
1488,6,4,1515,10600,1609.7831354141235
1489,6,4,1515,10600,1610.6019644737244
1490,6,3,1515,10600,1611.4756038188934
1491,6,4,1515,10600,1612.4287776947021
1492,6,3,1515,10600,1613.8902900218964
1493,6,3,1515,10600,1614.670173406601
1494,6,4,1515,10600,1615.6684772968292
1495,6,4,1515,10600,1616.8267757892609
1496,6,3,1515,10600,1617.4209225177765
1497,6,3,1515,10600,1618.4571523666382
1498,6,3,1515,10600,1619.0523447990417
1499,6,3,1515,10600,1619.9697167873383
1500,6,4,1515,10600,1621.4287748336792
1501,6,3,1515,10600,1622.30002784729
1502,6,3,1515,10600,1622.668202161789
1503,6,3,1515,10600,1623.0202300548553
1504,6,3,1515,10600,1623.4291381835938
1505,6,3,1515,10600,1623.944759130478
1506,6,3,1515,10600,1624.2553112506866
1507,6,3,1515,10600,1624.9692869186401
1508,6,3,1515,10600,1625.303391456604
1509,6,3,1515,10600,1626.316798210144
1510,6,3,1515,10600,1626.911911725998
1511,6,3,1515,10600,1627.093427181244
1512,6,3,1515,10600,1627.9032773971558
1513,6,3,1515,10600,1628.6613819599152
1514,6,3,1515,10600,1629.2009105682373
1515,6,3,1515,10600,1630.2042772769928
1516,6,3,1515,10600,1630.7528412342072
1517,6,3,1515,10600,1631.5470943450928
1518,6,3,1515,10600,1631.8462960720062
1519,6,3,1515,10600,1632.9250762462616
1520,6,3,1515,10600,1634.170331478119
1521,6,3,1515,10600,1635.1916239261627
1522,6,3,1515,10600,1636.1989605426788
1523,6,3,1515,10600,1636.6253559589386
1524,6,3,1515,10600,1636.846759557724
1525,7,3,1515,10600,1637.7086634635925
1526,7,3,1515,10600,1637.9231214523315
1527,7,3,1515,10600,1638.782334804535
1528,7,3,1515,10600,1638.9854950904846
1529,7,3,1515,10600,1639.5951135158539
