HMNO,100195275 or 100196585 or 106570522 or 106574493 or 106596865 or 106596912 or 106610339
PGL,100286656 or 106565995 or 106582765
GND,100195559
AACOAT,106585920
r0450,106608880
ASPO1,106561133 or 106580948 or 106612549
SACCD_c,106561127 or 106584550
AASS_c,106561127 or 106584550
ASPTA,100196717 or 106560816 or 106562243 or 106564367 or 106573756 or 106579841 or 106587404 or 106589763 or 106591329
ASPTAm,100196717 or 106560816 or 106562243 or 106564367 or 106573756 or 106579841 or 106587404 or 106589763 or 106591329
EHGLATm,100196717 or 106560816 or 106562243 or 106564367 or 106573756 or 106579841 or 106587404 or 106589763 or 106591329
TYRTA,100196717 or 106560816 or 106560893 or 106562243 or 106564367 or 106573680 or 106573756 or 106579841 or 106587404 or 106589763 or 106591329
ACACT10m,100194920 or 106579756 or 106579772 or 106580430 or 106585052 or 106603558 or 106608385
ACCOAC,106568086 or 106580110 or 106585658 or 106603271
ACACT1m,100194920 or 106579756 or 106579772 or 106580430 or 106585052 or 106603558 or 106608385
ACOAH,106568307
ACONTm,100195201 or 106589533 or 106601239 or 106607160 or 106609344
ACONT,100195201 or 106589533 or 106601239 or 106607160 or 106609344
ACS,106566799 or 106569828 or 106572255 or 106576722 or 106591823 or 106595379 or 106596660 or 106608304
FACOAL40im,106569657 or 106579292 or 106596227 or 106602020 or 106602021 or 106606225 or 106606226 or 106606305 or 106606353
MMCSm,106562165
ASPCT,106571444 or 106607850
ADA,106561366 or 106567100 or 106572614 or 106573191 or 106609445
DADA,106561366 or 106567100 or 106572614 or 106573191 or 106609445
ADNK1,100196160 or 100196663 or 100306762 or 106603918
ADSS,100194620 or 100194621 or 100195168 or 100195211 or 106563477 or 106589688 or 106610853 or 106610855
ALCD2x,100195992 or 106600509 or 106611602
ALCD2y,106560437 or 106580289 or 106584055
ADK1,100194622 or 100195966 or 106560465 or 106570014 or 106570841 or 106571115 or 106584033 or 106587015 or 106588465 or 106596311 or 106596444 or 106602385 or 106607960
ADK1m,100194622 or 100195966 or 106560465 or 106570014 or 106570841 or 106571115 or 106584033 or 106587015 or 106588465 or 106596311 or 106596444 or 106602385 or 106607960
DADK,100194622 or 100195966 or 106560465 or 106570014 or 106570841 or 106571115 or 106584033 or 106587015 or 106588465 or 106596311 or 106596444 or 106602385 or 106607960
AGTim,106568486 or 106568771 or 106574201 or 106598450
3AIBT2m,106568486
AASAD3m,100194754
ABUTD,100194754 or 100195073 or 100195398 or 100286782 or 106578507 or 106581512 or 106600758 or 106602847 or 106605645 or 106613311
ALDD2x,100194754 or 100195073 or 100195398 or 100286782 or 106562593 or 106562611 or 106578507 or 106581512 or 106585664 or 106592019 or 106593545 or 106593955 or 106596374 or 106596420 or 106600758 or 106601716 or 106602847 or 106605645 or 106606760 or 106606778 or 106613311
ALDD22x,100194754 or 100195073 or 100195398 or 100286782 or 106562593 or 106562611 or 106578507 or 106581512 or 106585664 or 106592019 or 106593545 or 106593955 or 106596374 or 106596420 or 106600758 or 106601716 or 106602847 or 106605645 or 106606760 or 106606778 or 106613311
ALDH,100194754 or 100195073 or 100195398 or 100286782 or 106578507 or 106581512 or 106600758 or 106602847 or 106605645 or 106613311
BETALDHxm,100194754
XYLR,100196319 or 106561629 or 106573681 or 106576053 or 106609239 or 106609240
ATAH_1,106571621
ALLTN,106560661
ALATA_L,100194869 or 106560421 or 106561999 or 106569148 or 106569265 or 106579549 or 106587295 or 106590406 or 106600424
ALATA_Lm,100194869 or 106560421 or 106561999 or 106569148 or 106569265 or 106579549 or 106587295 or 106590406 or 106600424
IZPN,106576292 or 106609451
AGDC,106600672
AMPD2,100196648 or 100306790 or 106561496 or 106562104 or 106565671 or 106566847 or 106572871 or 106572896 or 106573163 or 106583055 or 106587203
GLYCLm,106561021 or 106566775 or 106580033 or 106584548 or 106585394
GCCbim,106566775
ADPT,106561348 or 106562063 or 106569196 or 106573384 or 106590221 or 106612046
ARGN,100196287 or 100500786 or 106599105 or 106611485
ARGNm,100196287 or 100500786 or 106599105 or 106611485
ASNS1,100195141 or 106570297
ACITL,106589258 or 106601015 or 106607281
MGCHrm,106571906
LEUTA,100195810 or 106576140 or 106601552 or 106609182
VALTA,100195810 or 106576140 or 106601552 or 106609182
ILETA,100195810 or 106576140 or 106601552 or 106609182
ACOAD10m,106563087 or 106568363 or 106575476 or 106577431
MOD_2hop,100194712 or 106605051 or 106613373
MOD_pdhlam,100194712 or 106605051 or 106613373
MOD_4mop,100194712 or 106605051 or 106613373
MOD,100194712 or 106605051 or 106613373
MOD_3mop,100194712 or 106605051 or 106613373
MOD_3mhtpp,100194712 or 106605051 or 106613373
MOD_2mhop,100194712 or 106605051 or 106613373
MOD_2mbdhl,100194712 or 106605051 or 106613373
GLUDC,106569246 or 106569274 or 106569508 or 106581773 or 106586218 or 106590230 or 106600054
BUP,100286709
HCO3E,100195268 or 100195656 or 106560932 or 106561977 or 106565810 or 106566382 or 106568872 or 106569481 or 106569486 or 106569487 or 106571618 or 106572895 or 106573636 or 106575022 or 106581086 or 106584842 or 106587277 or 106590208 or 106599341 or 106599582 or 106603953 or 106605785 or 106612801
HCO3Em,100195268 or 100195656 or 106560932 or 106561977 or 106565810 or 106566382 or 106568872 or 106569481 or 106569486 or 106569487 or 106571618 or 106572895 or 106573636 or 106575022 or 106581086 or 106584842 or 106587277 or 106590208 or 106599341 or 106599582 or 106603953 or 106605785 or 106612801
CYTD,100286653 or 106572574 or 106590862 or 106608798
DCYTD,100286653 or 106572574 or 106590862 or 106608798
CYSO,100196492 or 106580183
CHOPT_PALM_PALM_c,100194840 or 106566938 or 106572169 or 106576273 or 106583483 or 106609452
CHOLK,106560813 or 106561237 or 106573758
CSm,106567176 or 106572524 or 106583348
CKc,100194501 or 100194630 or 100194631 or 100194749 or 100195654 or 106561094 or 106567627 or 106568267 or 106584654 or 106585057 or 106599441 or 106603694 or 106607642 or 106612591
CK,100194501 or 100194630 or 100194631 or 100194749 or 100195654 or 106561094 or 106567627 or 106568267 or 106584654 or 106585057 or 106599441 or 106603694 or 106607642 or 106612591
CHLPCTD,106563634 or 106568933 or 106578451 or 106590595 or 106599064 or 106603074 or 106612410
CPS_m,106586447
CBPS,106571444 or 106607850
HCGALm,106571444 or 106607850
CAT,100195273 or 106564824 or 106586175
CATm,100195273 or 106564824 or 106586175
CTPS2,106570266 or 106584221 or 106588651
CTPS1_2,106570266 or 106584221 or 106588651
CYSTGL,100194964 or 106573862
CYSTS,106562750 or 106574753 or 106582148 or 106586691 or 106593678 or 106596883 or 106597168 or 106597270 or 106597421
DHLTAm,106573943 or 106613594
DHRT_ivcoa,106573943 or 106613594
DHRT_ibcoa,106573943 or 106613594
MOD_dhlam,106573943 or 106613594
ADMDC,100306805 or 106571312
DCMPDA_1,106602441 or 106610063
ADADir,100196160 or 106603918
DRPA,100194806 or 106599083
DHFR,100196879 or 106573293
FOLR2_1,100196879 or 106573293
DHORTS,106571444 or 106607850
XYLTD_D,100196489 or 106562152
PTRCOX1,106590278
GCC2cm,106561021 or 106584548
NTD6,100194593 or 100194911 or 100306802 or 106561018 or 106565054 or 106571277 or 106571658 or 106576691 or 106579015 or 106579167 or 106580683 or 106580708 or 106581194 or 106585206 or 106588647 or 106588790 or 106589086 or 106589139 or 106601014 or 106607280 or 106607699 or 106608203 or 106608205 or 106610886
NTD8,100194593 or 100194911 or 100306802 or 106561018 or 106565054 or 106571277 or 106571658 or 106576691 or 106579015 or 106579167 or 106580683 or 106580708 or 106581194 or 106585206 or 106588647 or 106588790 or 106589086 or 106589139 or 106601014 or 106607280 or 106607699 or 106608203 or 106608205 or 106610886
DURAD,106568897 or 106578501 or 106598776
DURAD2,106568897 or 106578501 or 106598776
DHPD,100380817
DHPM2,100380817
DTMPK,100195817 or 106560660
URIDK2r,100195817 or 106560660
HACD1m,100195275 or 100196585 or 106610339
ECOAH1m,100194570 or 100195275 or 106603767 or 106611334
ECOAH9m,100194570 or 100195275 or 106603767 or 106611334
ECOAH12m,100194570 or 100195275 or 106603767 or 106611334
HACD9m,100195275 or 100196585 or 106610339
ENO,100194636 or 100194865 or 100195261 or 100196671 or 106565361 or 106566383 or 106576545 or 106588424 or 106595066 or 106605855 or 106606505
ENOm,100194636 or 100194865 or 100195261 or 100196671 or 106565361 or 106566383 or 106576545 or 106588424 or 106595066 or 106605855 or 106606505
NDP1,106565347 or 106577463 or 106579923 or 106583547 or 106592522 or 106605417
NDP3,100195480 or 100196687 or 106564354 or 106565347 or 106571572 or 106576718 or 106577463 or 106579862 or 106579923 or 106583547 or 106585564 or 106591143 or 106592522 or 106592979 or 106605417 or 106606400 or 106606402 or 106608092 or 106611031
ATPM,100196233 or 106565347 or 106565521 or 106577463 or 106579923 or 106580000 or 106583547 or 106592522 or 106605417
NTP3,100380278 or 106561645 or 106563274 or 106564209 or 106564235 or 106565347 or 106567059 or 106569416 or 106573080 or 106574090 or 106577463 or 106579923 or 106583547 or 106584228 or 106590788 or 106592522 or 106592593 or 106593274 or 106594821 or 106600414 or 106601595 or 106602043 or 106605417 or 106606829 or 106606844 or 106609227 or 106611232 or 106613511 or 106613976
NTP7,106565347 or 106577463 or 106579923 or 106583547 or 106592522 or 106605417
NDP7,100195480 or 100196687 or 106564354 or 106565347 or 106571572 or 106576718 or 106577463 or 106579862 or 106579923 or 106583547 or 106585564 or 106591143 or 106592522 or 106592979 or 106605417 or 106606400 or 106606402 or 106608092 or 106611031
NTP5,106565347 or 106577463 or 106579923 or 106583547 or 106592522 or 106605417
CDPPH,106565347 or 106577463 or 106579923 or 106583547 or 106592522 or 106605417
PSDOm,106582613 or 106605166
FUMAC,106562592 or 106562651 or 106587846
FAS,106589612 or 106610271
FBA,100136522 or 100194623 or 100194624 or 100196338 or 100196688 or 100380798 or 106563945 or 106583908 or 106604855 or 106612788
FBP,100194619 or 100380728 or 106561989 or 106568356 or 106593443
GluForTx,100306782 or 106575213
FTCD,100306782 or 106575213
FTHFDH,106576152 or 106583638 or 106609325
FTHFDHm,106576152 or 106609325
FUMm,106564811 or 106577413 or 106594031 or 106611092
FUM,106564811 or 106577413 or 106594031 or 106611092
G6PP,106579337 or 106586204 or 106589305 or 106589306 or 106589637 or 106601296 or 106607196
3A2OA,106564456 or 106591689 or 106592407 or 106592516 or 106602007
ASP1DC,100380811 or 106569246 or 106569274 or 106569508 or 106581773 or 106586218 or 106590230 or 106594092 or 106599171 or 106600054
GALKr,106578898
UGLT,100195419
GACMTRc,100196494 or 106573878
GAPD,100136417 or 106569991 or 106570164 or 106575942 or 106577739 or 106588431 or 106588432 or 106600163
GLYAMDTRc,106562859 or 106587738 or 106595761
GLUTCOADHm,106564571 or 106589338 or 106601351 or 106607075
GCCam,106580033 or 106585394
GUAD,106580061 or 106585354 or 106585711
GLUDy,100136402 or 100136404 or 100136533 or 106589416 or 106599099 or 106605574 or 106606089
GDHm,100136402 or 100136404 or 100136533 or 106589416 or 106599099 or 106605574 or 106606089
GLNS_1,100196183 or 106560331 or 106565542 or 106569199 or 106584177
GALm,100196183 or 106560331 or 106565542 or 106569199 or 106584177
GLUNm,100195141 or 106561284 or 106566158 or 106566711 or 106570266 or 106570297 or 106571444 or 106571948 or 106574285 or 106575215 or 106581456 or 106583705 or 106584221 or 106586143 or 106588651 or 106607850 or 106613275 or 106613353
GLYK,100380473 or 106575778 or 106575784 or 106586902 or 106598166
GLYCK2m,106565974
G6PDA,100195502 or 106604227 or 106612224
3SALATAi,100196717 or 106560816 or 106562243 or 106564367 or 106573756 or 106579841 or 106587404 or 106589763 or 106591329
G3PD1ir,100136539 or 106566713 or 106571950 or 106574437 or 106575257 or 106583703 or 106590744 or 106594695
GLYCDH_1,100196601 or 106592840 or 106611699
TRDR,106565239 or 106583642 or 106585093 or 106609375
MACACI,106593072
GMPS2,106581456 or 106613275 or 106613353
GMPR,100195935 or 106577801 or 106588810 or 106606117 or 106608854
GK1,100195504 or 106569342 or 106574006 or 106613532
DGK1,100195504 or 106569342 or 106574006 or 106613532
HISDr,106561681 or 106576224 or 106609334
HGNTOR,106590602
HIBH,106586135
HIUH_c,100195695 or 106562276
HMGLm,106578367 or 106589805 or 106610807 or 106613523
HMGL,106578367 or 106589805 or 106610807 or 106613523
HMGCOAS,106571543
DDPGAm,106564335 or 106591168 or 106591313
34HPPOR,100195397 or 106579929 or 106585509
XPPT,106561348 or 106569196 or 106573384 or 106590221 or 106612046
HXPRT,106561348 or 106569196 or 106573384 or 106590221 or 106612046
GUAPRT,106561348 or 106562063 or 106569196 or 106573384 or 106590221 or 106612046
HEX1,106564733 or 106568009 or 106580495 or 106580581 or 106585103 or 106585167 or 106587516 or 106589825 or 106612430 or 106612435
HEX4,106564733 or 106568009 or 106580495 or 106585103 or 106587516 or 106589825 or 106612430 or 106612435
ICDHxm,106565197 or 106567023 or 106572708 or 106573004 or 106583358 or 106587986 or 106595310 or 106609699
ICDHym,100194639 or 100194640 or 106582376 or 106586335 or 106588118 or 106591218 or 106591778 or 106598461 or 106598572 or 106598629
IMPD,100196657 or 100306833 or 106561215 or 106566785 or 106573524 or 106576497 or 106609577
IDPh_1,106560865 or 106577215 or 106577348 or 106577390 or 106592890 or 106602282 or 106608436 or 106610351 or 106610355
IDPm,106560865 or 106577215 or 106577348 or 106577390 or 106592890 or 106602282 or 106608436 or 106610351 or 106610355
ACOAD8m,100194550 or 106608228
CYSDSm,100195431 or 106569847 or 100194964 or 106573862
OCOAT1m,106563327 or 106580620 or 106585202
2OXOADOXm,106561021 or 106561658 or 106569142 or 106571041 or 106573060 or 106580202 or 106584548 or 106587025 or 106590001 or 106598238 or 106608299 or 106611056
TMDK1,100196419 or 106561984 or 106564352 or 106587284 or 106591566
DURIK1,100196419 or 106561984 or 106564352 or 106587284 or 106591566
LDH_L,100194556 or 100195468 or 106561670 or 106573043 or 106573069 or 106609123
LDH_Lm,100194556 or 100195468 or 106561670 or 106573043 or 106573069 or 106609123
SUCOASm,106565836 or 106582245 or 106583035 or 106586493 or 106602756 or 106610028
SUCOAS1m,106565836 or 106582245 or 106583035 or 106586493 or 106602756 or 106610028
MCDm,106560874 or 106573701
MCCCrm,106570954 or 106584300 or 106613885 or 106613934
MMEm,106562156 or 106587249
MDH,100194641 or 100196673 or 106564857 or 106577387 or 106577388 or 106585868 or 106593044 or 106596468
MDHm,100194641 or 100196673 or 106564857 or 106577387 or 106577388 or 106585868 or 106593044 or 106596468
ME2,106581960 or 106583951 or 106586750 or 106605032
ME1m,106585827
ME2m,106581960 or 106583951 or 106586750 or 106605032
METAT,100306756 or 106563191 or 106564841 or 106577245 or 106579281 or 106580346 or 106585265 or 106603921 or 106613069
MMSAD3,100217349 or 106571571 or 106592678
MMSDH,100217349 or 106571571 or 106592678
MAN6PI,106560745 or 106584640 or 106594018 or 106598087 or 106598407 or 106599274 or 106599405 or 106599478 or 106599510 or 106599850 or 106599952 or 106600053
MTHFC,106570897 or 106580352 or 106581504 or 106585270 or 106607641
MTHFCm,106570897 or 106580352 or 106581504 or 106585270 or 106607641
MTHFD2m,106570897 or 106580352 or 106585270
FTHFLi,100306829 or 106581504 or 106607641
FTHFLmi,100306829 or 106581504 or 106607641
MTHFD,106581504 or 106607641
MTHFR2_1,106572128
METS_1,106577298 or 106590971 or 106592895 or 106593741
MMMm,106571767
ACGAMK,106578076
NDPK1,100136353 or 100194591 or 100196066 or 100196215 or 100196339 or 106560636 or 106565719 or 106589447 or 106600677 or 106607960 or 106608324
NDPK8,100136353 or 100194591 or 100196066 or 100196215 or 100196339 or 106560636 or 106565719 or 106589447 or 106600677 or 106607960 or 106608324
NDPK5,100136353 or 100194591 or 100196066 or 100196215 or 100196339 or 106560636 or 106565719 or 106589447 or 106600677 or 106607960 or 106608324
NDPK2,100136353 or 100194591 or 100196066 or 100196215 or 100196339 or 106560636 or 106565719 or 106589447 or 106600677 or 106607960 or 106608324
NDPK3,100136353 or 100194591 or 100196066 or 100196215 or 100196339 or 106560636 or 106565719 or 106589447 or 106600677 or 106607960 or 106608324
NDPK7,100136353 or 100194591 or 100196066 or 100196215 or 100196339 or 106560636 or 106565719 or 106589447 or 106600677 or 106607960 or 106608324
NDPK4,100136353 or 100194591 or 100196066 or 100196215 or 100196339 or 106560636 or 106565719 or 106589447 or 106600677 or 106607960 or 106608324
NDPK9,100136353 or 100194591 or 100196066 or 100196215 or 100196339 or 106560636 or 106565719 or 106589447 or 106600677 or 106607960 or 106608324
UMPK,100136513 or 106568761 or 106584236 or 106598849
CYTK1,100136513 or 106568761 or 106584236 or 106598849
CYTK2,100136513 or 106568761 or 106584236 or 106598849
NTD11,100194593 or 100194911 or 100306802 or 106561018 or 106565054 or 106571277 or 106571658 or 106576691 or 106579015 or 106579167 or 106580683 or 106580708 or 106581194 or 106585206 or 106588647 or 106588790 or 106589086 or 106589139 or 106601014 or 106607280 or 106607699 or 106608203 or 106608205 or 106610886
NTD7,100194593 or 100194911 or 100306802 or 106561018 or 106565054 or 106571277 or 106571658 or 106576691 or 106579015 or 106579167 or 106580683 or 106580708 or 106581194 or 106585206 or 106588647 or 106588790 or 106589086 or 106589139 or 106601014 or 106607280 or 106607699 or 106608203 or 106608205 or 106610886
NTD10,100194593 or 100194911 or 100306802 or 106561018 or 106565054 or 106571277 or 106571658 or 106576691 or 106579015 or 106579167 or 106580683 or 106580708 or 106581194 or 106585206 or 106588647 or 106588790 or 106589086 or 106589139 or 106601014 or 106607280 or 106607699 or 106608203 or 106608205 or 106610886
GMP5N,100194593 or 100194911 or 100306802 or 106561018 or 106565054 or 106571277 or 106571658 or 106576691 or 106579015 or 106579167 or 106580683 or 106580708 or 106581194 or 106585206 or 106588647 or 106588790 or 106589086 or 106589139 or 106601014 or 106607280 or 106607699 or 106608203 or 106608205 or 106610886
NTD2,100194593 or 100194911 or 100306802 or 106561018 or 106565054 or 106571277 or 106571658 or 106576691 or 106579015 or 106579167 or 106580683 or 106580708 or 106581194 or 106585206 or 106588647 or 106588790 or 106589086 or 106589139 or 106601014 or 106607280 or 106607699 or 106608203 or 106608205 or 106610886
NTD4,100194593 or 100194911 or 100306802 or 106561018 or 106565054 or 106571277 or 106571658 or 106576691 or 106579015 or 106579167 or 106580683 or 106580708 or 106581194 or 106585206 or 106588647 or 106588790 or 106589086 or 106589139 or 106601014 or 106607280 or 106607699 or 106608203 or 106608205 or 106610886
ORNTArm,106577392 or 106593297 or 106608869
ORNDC,106600595 or 106611136
5HPUDICDC_c,106579505
OCBTm,106586678
HMR_4777,100380340 or 100380838 or 106567609 or 106577060 or 106578992 or 106581202 or 106603838
PHCDm,106565909 or 106582961
P5CRm,100196154 or 100196307 or 106564330 or 106564349 or 106592277 or 106601844 or 106601926 or 106606436
G5SDym,100380546 or 106579029 or 106589322
GLU5Km,100380546 or 106579029 or 106589322
PHEH_c,106576281 or 106609449
PPCOACm,106574468 or 106575421 or 106575684 or 106593318 or 106594657 or 106596366 or 106597448 or 106597658 or 106597674 or 106597768
PEPCK_re,100136543 or 100195420 or 106590260
PEPCKm,100136543 or 100195420 or 106590260
ITPOXAL,100136543 or 100195420 or 106590260
PDHam1mi,106563586 or 106566255 or 106579465 or 106583814 or 106590467 or 106593429 or 106603064
PDHam2mi,106563586 or 106566255 or 106579465 or 106583814 or 106590467 or 106593429 or 106603064
PRFGS,106613946
PFK,100380410 or 106565515 or 106566997 or 106568830 or 106572730 or 106572792 or 106578535 or 106582566 or 106583067 or 106593347
PGK,100194765 or 106568020
PGM,100194644 or 100194645 or 100194748 or 100196266 or 106561646 or 106564313 or 106589759
PPM,100194572 or 106560477 or 106568718 or 106594108 or 106594399 or 106595213 or 106598733 or 106599190 or 106612444 or 106585157 or 106580555
PPM2,106594108 or 106594399 or 106595213 or 106599190
AGPATCOA_PALM_PALM_c,100195109 or 100196235 or 106562956 or 106566507 or 106568861 or 106570652 or 106571255 or 106573215 or 106573494 or 106574312 or 106582438 or 106586274 or 106588725 or 106589751 or 106589814 or 106595731 or 106601632 or 106607658 or 106610702 or 106611107 or 106612554
G3PAT160_1,100195147 or 100196460 or 106563657 or 106568233 or 106579146 or 106580447 or 106580584 or 106585165 or 106585610
PUNP1,106561105 or 106562242 or 106565393 or 106569594 or 106573753 or 106578021 or 106583311 or 106587406 or 106605471 or 106608992
PUNP2,106561105 or 106562242 or 106565393 or 106569594 or 106573753 or 106578021 or 106583311 or 106587406 or 106605471 or 106608992
PUNP6,100195250 or 106561105 or 106562242 or 106565393 or 106569594 or 106573753 or 106578021 or 106583311 or 106587406 or 106598843 or 106605471 or 106608992
PUNP4,100195250 or 106561105 or 106562242 or 106565393 or 106569594 or 106573753 or 106578021 or 106583311 or 106587406 or 106598843 or 106605471 or 106608992
DURIPP,100195250 or 100196719 or 106561105 or 106562242 or 106565393 or 106569594 or 106573753 or 106578021 or 106581814 or 106583311 or 106586173 or 106587406 or 106594171 or 106596151 or 106598843 or 106605471 or 106608992
PAPA160,100194818 or 100195687 or 100286717 or 106560230 or 106561845 or 106564150 or 106565215 or 106568407 or 106569302 or 106570052 or 106574497 or 106575392 or 106576893 or 106578699 or 106579442 or 106580570 or 106583597 or 106584209 or 106584410 or 106585174 or 106590143 or 106592432 or 106592949 or 106600418 or 106606828 or 106610734
r0074,106565909 or 106582961
P5CDm,106565909 or 106582961
PROD2m,100194675 or 106564257 or 106568196
HPROxm,100196154 or 100196307 or 106564330 or 106564349 or 106592277 or 106601844 or 106601926 or 106606436
PRPPS,100195336 or 100196487 or 106567858 or 106574406 or 106604323 or 106612209 or 106593728 or 100196874 or 106588225 or 106606986 or 106593658 or 106601403
GLUPRT,100194926 or 106560282
PRAGSr,106575120
GARFT,106575120
PRFGCL,106575120
AIRCr,106560225 or 106560280 or 106584129
PRASCSi,106560225 or 106560280 or 106584129
ADSL2r,106600892 or 106607442
ADSL1r,106600892 or 106607442
AICART,100195121 or 106575709
IMPC,100195121 or 106575709
PC,106560439 or 106560733 or 106563498 or 106592454 or 106593947 or 106603157
PCm,106560439 or 106560733 or 106563498 or 106592454 or 106593947 or 106603157
PYK,100195460 or 100196674 or 106573729 or 106574276 or 106574626 or 106587214 or 106594812 or 106605740
PYKm,100195460 or 100196674 or 106573729 or 106574276 or 106574626 or 106587214 or 106594812 or 106605740
PYK5,100195460 or 100196674 or 106573729 or 106574276 or 106574626 or 106587214 or 106594812 or 106605740
ORPT,100380605 or 106581832
OMPDC,100380605 or 106581832
NNOR,106562428 or 106562460 or 106562504 or 106568155 or 106587679 or 106587682
RBK,100195822
RNDR1,100194994 or 100195484 or 106567863 or 106570792 or 106607664
RNDR2,100194994 or 100195484 or 106567863 or 106570792 or 106607664
RNDR3,100194994 or 100195484 or 106567863 or 106570792 or 106607664
RNDR4,100194994 or 100195484 or 106567863 or 106570792 or 106607664
RPE,100196883 or 106582040
RPI,106595626 or 106599499 or 106611309 or 106611449 or 106600683
AHCi,100194597 or 100195346 or 106561320 or 106565661 or 106566363 or 106566385 or 106572868 or 106573363 or 106576060 or 106583082 or 106609228
SARDHm,106561570
ACOAD1fm,100194550 or 100306814 or 100380562 or 100380782 or 106563087 or 106568363
ACOAD9m,106563087 or 106568363
SUCD1m,100194530 or 100196665 or 106566856 or 106570380 or 106573122 or 106583101
SERD_L,106576769 or 106580394 or 106585298 or 106601062 or 106605075 or 106611220
PSERT,106570960
PSP_L,100196629 or 106612829
PGCD,106581777 or 106586211
SGAT,106568771 or 106574201 or 106598450
GHMT2r,106566120 or 106591425 or 106594472 or 106596290
GHMT2rm,106566120 or 106591425 or 106594472 or 106596290
SPMS,106572059
SPRMS,100195133 or 106603082
POLYAO3,106602764 or 106609979
SQORm,106561757 or 106584721
SSALxm,106605473
r0142,106583282
TALA,100286487 or 106587651 or 106587773
THRA,106608997
THRD_L,106576769 or 106580394 or 106585298 or 106601062 or 106605075 or 106611220
TKT1,100195505 or 100380727 or 106565155 or 106566687 or 106571977 or 106572957 or 106583364 or 106599000 or 106599053
TKT2,100195505 or 100380727 or 106565155 or 106566687 or 106571977 or 106572957 or 106583364 or 106599000 or 106599053
TPI,100194617 or 106569985 or 106583351
TMDS,100196214
TMDPP,100195250 or 106598843
PYNP2r,100196719 or 106581814 or 106586173 or 106594171 or 106596151
UDPG4E,106578183 or 106610806
ABTArm,106564456 or 106591689 or 106592407 or 106592516 or 106602007
GALUi,100195257 or 106585850 or 106595143
BUPN,100286709
URO_c,100136464
URIK1,100195700 or 100380824 or 106560433 or 106562869 or 106566584 or 106569706 or 106569943 or 106572454 or 106584056
CYTDK1_1,100195700 or 100380824 or 106560433 or 106562869 or 106566584 or 106569706 or 106569943 or 106572454 or 106584056
URCN,106565608 or 106583200
PUNP5,106561105 or 106562242 or 106565393 or 106569594 or 106573753 or 106578021 or 106583311 or 106587406 or 106605471 or 106608992
PUNP3,106561105 or 106562242 or 106565393 or 106569594 or 106573753 or 106578021 or 106583311 or 106587406 or 106605471 or 106608992
PUNP7,106561105 or 106562242 or 106565393 or 106569594 or 106573753 or 106578021 or 106583311 or 106587406 or 106605471 or 106608992
HXAND,100380763
XYLK,106590376
G3PD2m,106574870 or 106575774 or 106581822
GLCS2,106566433 or 106601949 or 106601986 or 106606415
CATp,100195273 or 106564824 or 106586175
G6PDH2r,100196702 or 106571947 or 106572705 or 106599940
PGMT,100194572 or 106560477 or 106568718 or 106594108 or 106594399 or 106595213 or 106598733 or 106599190
PGI,100196524 or 106562377 or 106587569
HEX7,106564733 or 106568009 or 106580495 or 106585103 or 106587516 or 106589825 or 106612430 or 106612435
ACCOACrm,106568086 or 106580110 or 106585658 or 106603271
CHOLD2m,106571975
GCC2am,106580033 or 106585394
GCCcm,106561021 or 106584548
GCC2bim,106566775
PDHe2r,106563967 or 106604067
ICITRED,100194639 or 100194640 or 106582376 or 106586335 or 106588118 or 106591218 or 106591778 or 106598461 or 106598572 or 106598629
OSUCCL,100194639 or 100194640 or 106582376 or 106586335 or 106588118 or 106591218 or 106591778 or 106598461 or 106598572 or 106598629
AKGDm,106561021 or 106561658 or 106569142 or 106571041 or 106573060 or 106580202 or 106584548 or 106587025 or 106590001 or 106598238 or 106608299 or 106611056
THBPOX_m,100196358 or 106604536 or 106611553
HTHBDH_m,100196830 or 100286615 or 106576922
DHFOR,100196879 or 106573293
NDPK6,100136353 or 100194591 or 100196066 or 100196215 or 100196339 or 106560636 or 106565719 or 106589447 or 106600677 or 106607960 or 106608324
AATA,106608880
ACYP,100196119 or 106608078 or 106611042
PRAIS,106575120
AMPDA,100196648 or 100306790 or 106561496 or 106562104 or 106565671 or 106566847 or 106572871 or 106572896 or 106573163 or 106583055 or 106587203
ACGAM2E,106566966 or 106566967
ACGAMPM,100194862
ACGAM6PS,100195905
GF6PTA,100195237 or 106563757 or 106585600 or 106604909 or 106611946
UAG2EMA,106602595 or 106609886
UAGDP,106560290 or 106570552 or 106584139 or 106599663
DHPM1,100380817
CSND,106575151 or 106576980
UPPN,100286709
XANDp,100380763
XAOx,100380763
XAO2x,100380763
NOS2,100136358 or 100136388 or 106579827 or 106585241
NOS1,100136358 or 100136388 or 106579827 or 106585241
ASNN,100194861 or 106576984 or 106594056 or 106594751 or 106594765 or 106595288 or 106599823 or 106600886 or 106603750 or 106607449 or 106611886 or 106612836
GNMT,106561891
APAT2rm,106564456 or 106591689 or 106592407 or 106592516 or 106602007
MMSAD3m,100217349 or 106571571 or 106592678
NBAHH_ir,100196692 or 106569863 or 106579285 or 106579306 or 106588296 or 106605538
LCYSTCBOXL,100380811 or 106569246 or 106569274 or 106569508 or 106576775 or 106581773 or 106586218 or 106590230 or 106594092 or 106599171 or 106600054 or 106605019
GTHS,106572074
GLUCYS,100196780 or 106612605
GTHOr,106604481
HISDC,106587893 or 106594739 or 106595316
LEUTAm,100195810 or 106576140 or 106601552 or 106609182
AADSACYCL,100194754
SACCD4m,106584550
AASAD3,100194754
SACCD3m,106561127 or 106584550
ALDD19xr,106562593 or 106562611 or 106585664 or 106592019 or 106593545 or 106593955 or 106596374 or 106596420 or 106601716 or 106606760 or 106606778
PHYCBOXL,106579919 or 106605416
PEAMNO,100194731 or 106565287 or 106581942 or 106586788 or 106601268
ALDD19x_P,106562593 or 106562611 or 106585664 or 106592019 or 106593545 or 106593955 or 106596374 or 106596420 or 106601716 or 106606760 or 106606778
DHPR,100196358 or 106604536 or 106611553
THBPT4ACAMDASE,100196830 or 100286615 or 106576922
PHETHPTOX2,106576281 or 106609449
LPCOXp,106613098
KYN,106574376 or 106575231
FKYNH,100196069
TRPO2,106577031 or 106579858 or 106585586 or 106604524 or 106611580
KYNAKGAT,100195431 or 106569847 or 106608880
LFORKYNHYD,106574376 or 106575231
r0239,100196069
3HAO,100196450
HKYNH,106574376 or 106575231
KYN3OX,106576798 or 106604861
5HLTDL,106579919 or 106605416
TRPHYDRO2,106561539 or 106562311 or 106584760 or 106587468
3HLYTCL,106579919 or 106605416
DOPABMO,106568424
NORANMT,106579371
TYRDOPO,100136546 or 106569882 or 106588324
VALTAim,100195810 or 106576140 or 106601552 or 106609182
HIBDm,106570522 or 106574493 or 106596865 or 106596912
3HBCOAHLm,106586135
MMTSADm,100217349 or 106571571 or 106592678
AM6SAD,106608358
PCLAD,106582398
ADSK,100195300 or 106577008 or 106602291 or 106610336
BPNT2,106568878 or 106571633 or 106608184
SADT,100195300 or 106577008 or 106602291 or 106610336
DUTPDP,106562484 or 106562547
NMNAT,100194756 or 106569066 or 106599047 or 106599437
NMNS,100380855 or 106561705 or 106565851 or 106598326 or 106609207
RBFK,100195483 or 106580082
FMNAT,100286671 or 106575080
PNTK,106565907 or 106578834 or 106578966 or 106582972 or 106589384 or 106589938 or 106611469
PPCDC,106584875
DPCOAK,106579131
PPNCL3,100195917
PTPATi,106579131
HMGCOASm,106571543
PDHm,106561021 or 106563586 or 106563967 or 106566255 or 106579465 or 106583814 or 106584548 or 106590467 or 106593429 or 106603064 or 106604067
